sim/transcript
# do run.do
# Model Technology ModelSim SE-64 vlog 10.6 Compiler 2016.12 Dec 13 2016
# Start time: 21:03:10 on Mar 28,2017
# vlog ../dut/ALU_netlist.v ../lib/gscl45nm.v 
# -- Compiling module ALU_DW01_add_0
# -- Compiling module ALU
# -- Compiling module AND2X1
# -- Compiling module AND2X2
# -- Compiling module AOI21X1
# -- Compiling module AOI22X1
# -- Compiling module BUFX2
# -- Compiling module BUFX4
# -- Compiling module CLKBUF1
# -- Compiling module CLKBUF2
# -- Compiling module CLKBUF3
# -- Compiling module DFFNEGX1
# -- Compiling module DFFPOSX1
# -- Compiling module DFFSR
# -- Compiling module FAX1
# -- Compiling module HAX1
# -- Compiling module INVX1
# -- Compiling module INVX2
# -- Compiling module INVX4
# -- Compiling module INVX8
# -- Compiling module LATCH
# -- Compiling module MUX2X1
# -- Compiling module NAND2X1
# -- Compiling module NAND3X1
# -- Compiling module NOR2X1
# -- Compiling module NOR3X1
# -- Compiling module OAI21X1
# -- Compiling module OAI22X1
# -- Compiling module OR2X1
# -- Compiling module OR2X2
# -- Compiling module TBUFX1
# -- Compiling module TBUFX2
# -- Compiling module XNOR2X1
# -- Compiling module XOR2X1
# -- Compiling UDP udp_dff
# -- Compiling UDP udp_tlat
# -- Compiling UDP udp_rslat
# -- Compiling UDP udp_mux2
# 
# Top level modules:
# 	ALU
# 	AND2X2
# 	BUFX4
# 	CLKBUF1
# 	CLKBUF2
# 	CLKBUF3
# 	DFFNEGX1
# 	DFFSR
# 	HAX1
# 	INVX2
# 	INVX4
# 	INVX8
# 	LATCH
# 	NAND2X1
# 	NOR2X1
# 	OAI22X1
# 	OR2X2
# 	TBUFX1
# 	TBUFX2
# 	XNOR2X1
# End time: 21:03:10 on Mar 28,2017, Elapsed time: 0:00:00
# Errors: 0, Warnings: 0
# Model Technology ModelSim SE-64 vlog 10.6 Compiler 2016.12 Dec 13 2016
# Start time: 21:03:10 on Mar 28,2017
# vlog "+cover" -sv ../tb/interfaces.sv ../tb/sequences.sv ../tb/coverage.sv ../tb/scoreboard.sv ../tb/modules.sv ../tb/tests.sv ../tb/tb.sv 
# -- Compiling interface dut_in
# -- Compiling interface dut_out
# ** Note: (vlog-2286) ../tb/sequences.sv(1): Using implicit +incdir+/misc/linuxws/packages/mentor_2016/modelsim10.6/modeltech/uvm-1.1d/../verilog_src/uvm-1.1d/src from import uvm_pkg
# -- Compiling package sequences
# -- Importing package mtiUvm.uvm_pkg (uvm-1.1d Built-in)
# -- Compiling package coverage
# -- Importing package sequences
# -- Compiling package scoreboard
# -- Compiling package modules_pkg
# -- Importing package coverage
# -- Importing package scoreboard
# -- Compiling package tests
# -- Importing package modules_pkg
# -- Compiling package tb_sv_unit
# -- Importing package mtiUvm.uvm_pkg (uvm-1.1d Built-in)
# -- Importing package modules_pkg
# -- Importing package sequences
# -- Importing package coverage
# -- Importing package scoreboard
# -- Importing package tests
# -- Compiling module dut
# -- Compiling module top
# 
# Top level modules:
# 	top
# End time: 21:03:11 on Mar 28,2017, Elapsed time: 0:00:01
# Errors: 0, Warnings: 0
# vsim -c top 
# Start time: 21:03:11 on Mar 28,2017
# ** Note: (vsim-3812) Design is being optimized...
# ** Warning: ../dut/ALU_netlist.v(151): (vopt-2685) [TFMPC] - Too few port connections for 'r74'.  Expected 5, found 4.
# ** Warning: ../dut/ALU_netlist.v(151): (vopt-2718) [TFMPC] - Missing connection for port 'CO'.
# //  ModelSim SE-64 10.6 Dec 13 2016Linux 2.6.32-642.11.1.el6.x86_64
# //
# //  Copyright 1991-2016 Mentor Graphics Corporation
# //  All Rights Reserved.
# //
# //  ModelSim SE-64 and its associated documentation contain trade
# //  secrets and commercial or financial information that are the property of
# //  Mentor Graphics Corporation and are privileged, confidential,
# //  and exempt from disclosure under the Freedom of Information Act,
# //  5 U.S.C. Section 552. Furthermore, this information
# //  is prohibited from disclosure under the Trade Secrets Act,
# //  18 U.S.C. Section 1905.
# //
# Loading sv_std.std
# Loading work.dut_in(fast)
# Loading work.dut_out(fast)
# Loading mtiUvm.uvm_pkg
# Loading work.sequences(fast)
# Loading work.scoreboard(fast)
# Loading work.coverage(fast)
# Loading work.modules_pkg(fast)
# Loading work.tests(fast)
# Loading work.tb_sv_unit(fast)
# Loading work.top(fast)
# Loading work.ALU(fast)
# Loading work.DFFPOSX1(fast)
# Loading work.FAX1(fast)
# Loading work.XOR2X1(fast)
# Loading work.OR2X1(fast)
# Loading work.BUFX2(fast)
# Loading work.AND2X1(fast)
# Loading work.INVX1(fast)
# Loading work.MUX2X1(fast)
# Loading work.AOI21X1(fast)
# Loading work.NAND3X1(fast)
# Loading work.OAI21X1(fast)
# Loading work.AOI22X1(fast)
# Loading work.NOR3X1(fast)
# Loading mtiUvm.questa_uvm_pkg(fast)
# Loading /misc/linuxws/packages/mentor_2016/modelsim10.6/modeltech/uvm-1.1d/linux_x86_64/uvm_dpi.so
# ----------------------------------------------------------------
# UVM-1.1d
# (C) 2007-2013 Mentor Graphics Corporation
# (C) 2007-2013 Cadence Design Systems, Inc.
# (C) 2006-2013 Synopsys, Inc.
# (C) 2011-2013 Cypress Semiconductor Corp.
# ----------------------------------------------------------------
# 
#   ***********       IMPORTANT RELEASE NOTES         ************
# 
#   You are using a version of the UVM library that has been compiled
#   with `UVM_NO_DEPRECATED undefined.
#   See http://www.eda.org/svdb/view.php?id=3313 for more details.
# 
#   You are using a version of the UVM library that has been compiled
#   with `UVM_OBJECT_MUST_HAVE_CONSTRUCTOR undefined.
#   See http://www.eda.org/svdb/view.php?id=3770 for more details.
# 
#       (Specify +UVM_NO_RELNOTES to turn off this notice)
# 
# UVM_INFO verilog_src/questa_uvm_pkg-1.2/src/questa_uvm_pkg.sv(215) @ 0: reporter [Questa UVM] QUESTA_UVM-1.2.3
# UVM_INFO verilog_src/questa_uvm_pkg-1.2/src/questa_uvm_pkg.sv(217) @ 0: reporter [Questa UVM]  questa_uvm::init(+struct)
# UVM_INFO @ 0: reporter [RNTST] Running test test1...
# UVM_INFO ../tb/scoreboard.sv(70) @ 2500: uvm_test_top.alu_env_h.alu_scoreboard_h [2] 
# Actual Input Values  
#  RST =0 A =11000110011100001001110111110110 B =11100110100110100100111100010100 CIN =1 Opcode =110
# Actual Outputs 
#  COUT =1 VOUT =0 OUT =11011111110101100100111011100010
# Expected Output 
#  COUT =0 VOUT =0 OUT =11011111110101100100111011100010 
# 
# UVM_INFO ../tb/scoreboard.sv(70) @ 3500: uvm_test_top.alu_env_h.alu_scoreboard_h [2] 
# Actual Input Values  
#  RST =0 A =10101111100010111100110011010001 B =00100110101011010011001100110000 CIN =1 Opcode =110
# Actual Outputs 
#  COUT =0 VOUT =0 OUT =10001000110111101001100110100001
# Expected Output 
#  COUT =1 VOUT =0 OUT =10001000110111101001100110100001 
# 
# UVM_INFO ../tb/scoreboard.sv(66) @ 4500: uvm_test_top.alu_env_h.alu_scoreboard_h [1] 
# Actual Input Values  
#  RST =0 A =00110100100011001000110101000001 B =10110100111010101110100001010111 CIN =1 Opcode =110
# Actual Outputs 
#  COUT =1 VOUT =1 OUT =01111111101000011010010011101010
# Expected Output 
#  COUT =0 VOUT =0 OUT =01111111101000011010010011101010 
# 
# UVM_INFO ../tb/scoreboard.sv(70) @ 4500: uvm_test_top.alu_env_h.alu_scoreboard_h [2] 
# Actual Input Values  
#  RST =0 A =00110100100011001000110101000001 B =10110100111010101110100001010111 CIN =1 Opcode =110
# Actual Outputs 
#  COUT =1 VOUT =1 OUT =01111111101000011010010011101010
# Expected Output 
#  COUT =0 VOUT =0 OUT =01111111101000011010010011101010 
# 
# UVM_INFO ../tb/scoreboard.sv(70) @ 5500: uvm_test_top.alu_env_h.alu_scoreboard_h [2] 
# Actual Input Values  
#  RST =0 A =10001011101000011111000100100011 B =00001111101011001100010000011010 CIN =1 Opcode =110
# Actual Outputs 
#  COUT =0 VOUT =1 OUT =01111011111101010010110100001001
# Expected Output 
#  COUT =1 VOUT =1 OUT =01111011111101010010110100001001 
# 
# UVM_INFO ../tb/scoreboard.sv(66) @ 6500: uvm_test_top.alu_env_h.alu_scoreboard_h [1] 
# Actual Input Values  
#  RST =0 A =11000011010011000010100011000111 B =00001010000010110101100101000011 CIN =1 Opcode =110
# Actual Outputs 
#  COUT =0 VOUT =1 OUT =10111001010000001100111110000100
# Expected Output 
#  COUT =1 VOUT =0 OUT =10111001010000001100111110000100 
# 
# UVM_INFO ../tb/scoreboard.sv(70) @ 6500: uvm_test_top.alu_env_h.alu_scoreboard_h [2] 
# Actual Input Values  
#  RST =0 A =11000011010011000010100011000111 B =00001010000010110101100101000011 CIN =1 Opcode =110
# Actual Outputs 
#  COUT =0 VOUT =1 OUT =10111001010000001100111110000100
# Expected Output 
#  COUT =1 VOUT =0 OUT =10111001010000001100111110000100 
# 
# UVM_INFO ../tb/scoreboard.sv(70) @ 7500: uvm_test_top.alu_env_h.alu_scoreboard_h [2] 
# Actual Input Values  
#  RST =0 A =01100011110010100100000100011001 B =00101101110000010111100101001001 CIN =1 Opcode =110
# Actual Outputs 
#  COUT =0 VOUT =0 OUT =00110110000010001100011111010000
# Expected Output 
#  COUT =1 VOUT =0 OUT =00110110000010001100011111010000 
# 
# UVM_INFO ../tb/scoreboard.sv(70) @ 8500: uvm_test_top.alu_env_h.alu_scoreboard_h [2] 
# Actual Input Values  
#  RST =0 A =10000111101010101100101110101011 B =00101110101011100011010101110101 CIN =1 Opcode =110
# Actual Outputs 
#  COUT =0 VOUT =1 OUT =01011000111111001001011000110110
# Expected Output 
#  COUT =1 VOUT =1 OUT =01011000111111001001011000110110 
# 
# UVM_INFO ../tb/scoreboard.sv(70) @ 9500: uvm_test_top.alu_env_h.alu_scoreboard_h [2] 
# Actual Input Values  
#  RST =0 A =10111111100000011101010001001010 B =11010011011111000110111110110100 CIN =1 Opcode =110
# Actual Outputs 
#  COUT =1 VOUT =0 OUT =11101100000001010110010010010110
# Expected Output 
#  COUT =0 VOUT =0 OUT =11101100000001010110010010010110 
# 
# UVM_INFO ../tb/scoreboard.sv(66) @ 10500: uvm_test_top.alu_env_h.alu_scoreboard_h [1] 
# Actual Input Values  
#  RST =0 A =00001000000111010011111110111101 B =11010101010001001100111110111000 CIN =1 Opcode =110
# Actual Outputs 
#  COUT =1 VOUT =1 OUT =00110010110110000111000000000101
# Expected Output 
#  COUT =0 VOUT =0 OUT =00110010110110000111000000000101 
# 
# UVM_INFO ../tb/scoreboard.sv(70) @ 10500: uvm_test_top.alu_env_h.alu_scoreboard_h [2] 
# Actual Input Values  
#  RST =0 A =00001000000111010011111110111101 B =11010101010001001100111110111000 CIN =1 Opcode =110
# Actual Outputs 
#  COUT =1 VOUT =1 OUT =00110010110110000111000000000101
# Expected Output 
#  COUT =0 VOUT =0 OUT =00110010110110000111000000000101 
# 
# UVM_INFO ../tb/scoreboard.sv(70) @ 11500: uvm_test_top.alu_env_h.alu_scoreboard_h [2] 
# Actual Input Values  
#  RST =0 A =01010011101000010011101000010111 B =01000000111110110110100101011111 CIN =1 Opcode =110
# Actual Outputs 
#  COUT =0 VOUT =0 OUT =00010010101001011101000010111000
# Expected Output 
#  COUT =1 VOUT =0 OUT =00010010101001011101000010111000 
# 
# UVM_INFO ../tb/scoreboard.sv(66) @ 12500: uvm_test_top.alu_env_h.alu_scoreboard_h [1] 
# Actual Input Values  
#  RST =0 A =01101110011110100011110011000001 B =11001001001100111101110111011111 CIN =1 Opcode =110
# Actual Outputs 
#  COUT =1 VOUT =0 OUT =10100101010001100101111011100010
# Expected Output 
#  COUT =0 VOUT =1 OUT =10100101010001100101111011100010 
# 
# UVM_INFO ../tb/scoreboard.sv(70) @ 12500: uvm_test_top.alu_env_h.alu_scoreboard_h [2] 
# Actual Input Values  
#  RST =0 A =01101110011110100011110011000001 B =11001001001100111101110111011111 CIN =1 Opcode =110
# Actual Outputs 
#  COUT =1 VOUT =0 OUT =10100101010001100101111011100010
# Expected Output 
#  COUT =0 VOUT =1 OUT =10100101010001100101111011100010 
# 
# UVM_INFO ../tb/scoreboard.sv(70) @ 13500: uvm_test_top.alu_env_h.alu_scoreboard_h [2] 
# Actual Input Values  
#  RST =0 A =01010100011111101010111110001010 B =10100111011111010111010000000011 CIN =1 Opcode =110
# Actual Outputs 
#  COUT =1 VOUT =1 OUT =10101101000000010011101110000111
# Expected Output 
#  COUT =0 VOUT =1 OUT =10101101000000010011101110000111 
# 
# UVM_INFO ../tb/scoreboard.sv(66) @ 14500: uvm_test_top.alu_env_h.alu_scoreboard_h [1] 
# Actual Input Values  
#  RST =0 A =00110100110100010101111101000011 B =10111000010110001110000010101001 CIN =1 Opcode =110
# Actual Outputs 
#  COUT =1 VOUT =1 OUT =01111100011110000111111010011010
# Expected Output 
#  COUT =0 VOUT =0 OUT =01111100011110000111111010011010 
# 
# UVM_INFO ../tb/scoreboard.sv(70) @ 14500: uvm_test_top.alu_env_h.alu_scoreboard_h [2] 
# Actual Input Values  
#  RST =0 A =00110100110100010101111101000011 B =10111000010110001110000010101001 CIN =1 Opcode =110
# Actual Outputs 
#  COUT =1 VOUT =1 OUT =01111100011110000111111010011010
# Expected Output 
#  COUT =0 VOUT =0 OUT =01111100011110000111111010011010 
# 
# UVM_INFO ../tb/scoreboard.sv(70) @ 15500: uvm_test_top.alu_env_h.alu_scoreboard_h [2] 
# Actual Input Values  
#  RST =0 A =10110011111101000110010110001100 B =01011010111010000100001100111110 CIN =1 Opcode =110
# Actual Outputs 
#  COUT =0 VOUT =1 OUT =01011001000011000010001001001110
# Expected Output 
#  COUT =1 VOUT =1 OUT =01011001000011000010001001001110 
# 
# UVM_INFO ../tb/scoreboard.sv(70) @ 16500: uvm_test_top.alu_env_h.alu_scoreboard_h [2] 
# Actual Input Values  
#  RST =0 A =10000011001011101001010101110011 B =01011001011000001011000000000001 CIN =1 Opcode =110
# Actual Outputs 
#  COUT =0 VOUT =1 OUT =00101001110011011110010101110010
# Expected Output 
#  COUT =1 VOUT =1 OUT =00101001110011011110010101110010 
# 
# UVM_INFO ../tb/scoreboard.sv(70) @ 17500: uvm_test_top.alu_env_h.alu_scoreboard_h [2] 
# Actual Input Values  
#  RST =0 A =10001011101111110010000011101011 B =00011110100101011110010011100010 CIN =1 Opcode =110
# Actual Outputs 
#  COUT =0 VOUT =1 OUT =01101101001010010011110000001001
# Expected Output 
#  COUT =1 VOUT =1 OUT =01101101001010010011110000001001 
# 
# UVM_INFO ../tb/scoreboard.sv(70) @ 18500: uvm_test_top.alu_env_h.alu_scoreboard_h [2] 
# Actual Input Values  
#  RST =0 A =00000001101000001100001001010101 B =00110110000010110111000100100111 CIN =1 Opcode =110
# Actual Outputs 
#  COUT =1 VOUT =0 OUT =11001011100101010101000100101110
# Expected Output 
#  COUT =0 VOUT =0 OUT =11001011100101010101000100101110 
# 
# UVM_INFO ../tb/scoreboard.sv(70) @ 19500: uvm_test_top.alu_env_h.alu_scoreboard_h [2] 
# Actual Input Values  
#  RST =0 A =10001011111100101100011100011001 B =00000010011011100011111000011101 CIN =1 Opcode =110
# Actual Outputs 
#  COUT =0 VOUT =0 OUT =10001001100001001000100011111100
# Expected Output 
#  COUT =1 VOUT =0 OUT =10001001100001001000100011111100 
# 
# UVM_INFO ../tb/scoreboard.sv(70) @ 20500: uvm_test_top.alu_env_h.alu_scoreboard_h [2] 
# Actual Input Values  
#  RST =0 A =01010001001100011111011101000100 B =01111010010110001000101110010111 CIN =1 Opcode =110
# Actual Outputs 
#  COUT =1 VOUT =0 OUT =11010110110110010110101110101101
# Expected Output 
#  COUT =0 VOUT =0 OUT =11010110110110010110101110101101 
# 
# UVM_INFO ../tb/scoreboard.sv(70) @ 21500: uvm_test_top.alu_env_h.alu_scoreboard_h [2] 
# Actual Input Values  
#  RST =0 A =01100001001000011001011111111010 B =00011111101111111101010100001000 CIN =1 Opcode =110
# Actual Outputs 
#  COUT =0 VOUT =0 OUT =01000001011000011100001011110010
# Expected Output 
#  COUT =1 VOUT =0 OUT =01000001011000011100001011110010 
# 
# UVM_INFO ../tb/scoreboard.sv(70) @ 22500: uvm_test_top.alu_env_h.alu_scoreboard_h [2] 
# Actual Input Values  
#  RST =0 A =01100000110001011001011101000010 B =00111100100101111010111111100000 CIN =1 Opcode =110
# Actual Outputs 
#  COUT =0 VOUT =0 OUT =00100100001011011110011101100010
# Expected Output 
#  COUT =1 VOUT =0 OUT =00100100001011011110011101100010 
# 
# UVM_INFO ../tb/scoreboard.sv(70) @ 23500: uvm_test_top.alu_env_h.alu_scoreboard_h [2] 
# Actual Input Values  
#  RST =0 A =10101000010001000101001001110100 B =00111011001000001100100100010000 CIN =1 Opcode =110
# Actual Outputs 
#  COUT =0 VOUT =1 OUT =01101101001000111000100101100100
# Expected Output 
#  COUT =1 VOUT =1 OUT =01101101001000111000100101100100 
# 
# UVM_INFO ../tb/scoreboard.sv(70) @ 24500: uvm_test_top.alu_env_h.alu_scoreboard_h [2] 
# Actual Input Values  
#  RST =0 A =00000001101010010100000000000110 B =00110110010111111011111001011000 CIN =1 Opcode =110
# Actual Outputs 
#  COUT =1 VOUT =0 OUT =11001011010010011000000110101110
# Expected Output 
#  COUT =0 VOUT =0 OUT =11001011010010011000000110101110 
# 
# UVM_INFO ../tb/scoreboard.sv(70) @ 25500: uvm_test_top.alu_env_h.alu_scoreboard_h [2] 
# Actual Input Values  
#  RST =0 A =01101001011100010110100011010100 B =11001101010110011110010100001111 CIN =1 Opcode =110
# Actual Outputs 
#  COUT =1 VOUT =1 OUT =10011100000101111000001111000101
# Expected Output 
#  COUT =0 VOUT =1 OUT =10011100000101111000001111000101 
# 
# UVM_INFO ../tb/scoreboard.sv(70) @ 26500: uvm_test_top.alu_env_h.alu_scoreboard_h [2] 
# Actual Input Values  
#  RST =0 A =11110011101000000010100101110000 B =00000001000100010110010000001000 CIN =1 Opcode =110
# Actual Outputs 
#  COUT =0 VOUT =0 OUT =11110010100011101100010101101000
# Expected Output 
#  COUT =1 VOUT =0 OUT =11110010100011101100010101101000 
# 
# UVM_INFO ../tb/scoreboard.sv(70) @ 27500: uvm_test_top.alu_env_h.alu_scoreboard_h [2] 
# Actual Input Values  
#  RST =0 A =01011000110000110010100100011011 B =11010001100011010101110111000111 CIN =1 Opcode =110
# Actual Outputs 
#  COUT =1 VOUT =1 OUT =10000111001101011100101101010100
# Expected Output 
#  COUT =0 VOUT =1 OUT =10000111001101011100101101010100 
# 
# UVM_INFO ../tb/scoreboard.sv(70) @ 28500: uvm_test_top.alu_env_h.alu_scoreboard_h [2] 
# Actual Input Values  
#  RST =0 A =10111101111100011101001010000011 B =11100101010111100011000110111101 CIN =1 Opcode =110
# Actual Outputs 
#  COUT =1 VOUT =0 OUT =11011000100100111010000011000110
# Expected Output 
#  COUT =0 VOUT =0 OUT =11011000100100111010000011000110 
# 
# UVM_INFO ../tb/scoreboard.sv(70) @ 29500: uvm_test_top.alu_env_h.alu_scoreboard_h [2] 
# Actual Input Values  
#  RST =0 A =01011111011101110001100111000100 B =11000001010000000111010110110110 CIN =1 Opcode =110
# Actual Outputs 
#  COUT =1 VOUT =1 OUT =10011110001101101010010000001110
# Expected Output 
#  COUT =0 VOUT =1 OUT =10011110001101101010010000001110 
# 
# UVM_INFO ../tb/scoreboard.sv(70) @ 30500: uvm_test_top.alu_env_h.alu_scoreboard_h [2] 
# Actual Input Values  
#  RST =0 A =01111111010100110001000001110011 B =11110111110101010101100001011010 CIN =1 Opcode =110
# Actual Outputs 
#  COUT =1 VOUT =1 OUT =10000111011111011011100000011001
# Expected Output 
#  COUT =0 VOUT =1 OUT =10000111011111011011100000011001 
# 
# UVM_INFO ../tb/scoreboard.sv(70) @ 31500: uvm_test_top.alu_env_h.alu_scoreboard_h [2] 
# Actual Input Values  
#  RST =0 A =10100111001101100010100101100110 B =11101000011110001010110000011110 CIN =1 Opcode =110
# Actual Outputs 
#  COUT =1 VOUT =0 OUT =10111110101111010111110101001000
# Expected Output 
#  COUT =0 VOUT =0 OUT =10111110101111010111110101001000 
# 
# UVM_INFO ../tb/scoreboard.sv(70) @ 32500: uvm_test_top.alu_env_h.alu_scoreboard_h [2] 
# Actual Input Values  
#  RST =0 A =11110110100101000010000100011011 B =10100011110000101001100010010000 CIN =1 Opcode =110
# Actual Outputs 
#  COUT =0 VOUT =0 OUT =01010010110100011000100010001011
# Expected Output 
#  COUT =1 VOUT =0 OUT =01010010110100011000100010001011 
# 
# UVM_INFO ../tb/scoreboard.sv(66) @ 33500: uvm_test_top.alu_env_h.alu_scoreboard_h [1] 
# Actual Input Values  
#  RST =0 A =11110111001000010001111001010010 B =00111001110011011000111000000001 CIN =1 Opcode =110
# Actual Outputs 
#  COUT =0 VOUT =1 OUT =10111101010100111001000001010001
# Expected Output 
#  COUT =1 VOUT =0 OUT =10111101010100111001000001010001 
# 
# UVM_INFO ../tb/scoreboard.sv(70) @ 33500: uvm_test_top.alu_env_h.alu_scoreboard_h [2] 
# Actual Input Values  
#  RST =0 A =11110111001000010001111001010010 B =00111001110011011000111000000001 CIN =1 Opcode =110
# Actual Outputs 
#  COUT =0 VOUT =1 OUT =10111101010100111001000001010001
# Expected Output 
#  COUT =1 VOUT =0 OUT =10111101010100111001000001010001 
# 
# UVM_INFO ../tb/scoreboard.sv(70) @ 34500: uvm_test_top.alu_env_h.alu_scoreboard_h [2] 
# Actual Input Values  
#  RST =0 A =11100110110111111011101111110100 B =00110001101001000111110000110000 CIN =1 Opcode =110
# Actual Outputs 
#  COUT =0 VOUT =0 OUT =10110101001110110011111111000100
# Expected Output 
#  COUT =1 VOUT =0 OUT =10110101001110110011111111000100 
# 
# UVM_INFO ../tb/scoreboard.sv(70) @ 35500: uvm_test_top.alu_env_h.alu_scoreboard_h [2] 
# Actual Input Values  
#  RST =0 A =11010100110001101110111010101001 B =11011001010110110001001111001000 CIN =1 Opcode =110
# Actual Outputs 
#  COUT =1 VOUT =0 OUT =11111011011010111101101011100001
# Expected Output 
#  COUT =0 VOUT =0 OUT =11111011011010111101101011100001 
# 
# UVM_INFO ../tb/scoreboard.sv(70) @ 36500: uvm_test_top.alu_env_h.alu_scoreboard_h [2] 
# Actual Input Values  
#  RST =0 A =01101000001101111010110101111001 B =10110111010011000111011101001100 CIN =1 Opcode =110
# Actual Outputs 
#  COUT =1 VOUT =1 OUT =10110000111010110011011000101101
# Expected Output 
#  COUT =0 VOUT =1 OUT =10110000111010110011011000101101 
# 
# UVM_INFO ../tb/scoreboard.sv(70) @ 37500: uvm_test_top.alu_env_h.alu_scoreboard_h [2] 
# Actual Input Values  
#  RST =0 A =00010001010101001110010001101011 B =00100101011110000110110001100010 CIN =1 Opcode =110
# Actual Outputs 
#  COUT =1 VOUT =0 OUT =11101011110111000111100000001001
# Expected Output 
#  COUT =0 VOUT =0 OUT =11101011110111000111100000001001 
# 
# UVM_INFO ../tb/scoreboard.sv(66) @ 38500: uvm_test_top.alu_env_h.alu_scoreboard_h [1] 
# Actual Input Values  
#  RST =0 A =00101001101010111010100011110111 B =10111110101100110011110010010010 CIN =1 Opcode =110
# Actual Outputs 
#  COUT =1 VOUT =1 OUT =01101010111110000110110001100101
# Expected Output 
#  COUT =0 VOUT =0 OUT =01101010111110000110110001100101 
# 
# UVM_INFO ../tb/scoreboard.sv(70) @ 38500: uvm_test_top.alu_env_h.alu_scoreboard_h [2] 
# Actual Input Values  
#  RST =0 A =00101001101010111010100011110111 B =10111110101100110011110010010010 CIN =1 Opcode =110
# Actual Outputs 
#  COUT =1 VOUT =1 OUT =01101010111110000110110001100101
# Expected Output 
#  COUT =0 VOUT =0 OUT =01101010111110000110110001100101 
# 
# UVM_INFO ../tb/scoreboard.sv(70) @ 39500: uvm_test_top.alu_env_h.alu_scoreboard_h [2] 
# Actual Input Values  
#  RST =0 A =00011011110101110000001111111101 B =11011101101111001111100010100110 CIN =1 Opcode =110
# Actual Outputs 
#  COUT =1 VOUT =0 OUT =00111110000110100000101101010111
# Expected Output 
#  COUT =0 VOUT =0 OUT =00111110000110100000101101010111 
# 
# UVM_INFO ../tb/scoreboard.sv(70) @ 40500: uvm_test_top.alu_env_h.alu_scoreboard_h [2] 
# Actual Input Values  
#  RST =0 A =00011001101001100010000101000010 B =00001111100001010001110001111100 CIN =1 Opcode =110
# Actual Outputs 
#  COUT =0 VOUT =0 OUT =00001010001000010000010011000110
# Expected Output 
#  COUT =1 VOUT =0 OUT =00001010001000010000010011000110 
# 
# UVM_INFO ../tb/scoreboard.sv(70) @ 41500: uvm_test_top.alu_env_h.alu_scoreboard_h [2] 
# Actual Input Values  
#  RST =0 A =10010010101011101100111110110001 B =00100110011100110000010101110110 CIN =1 Opcode =110
# Actual Outputs 
#  COUT =0 VOUT =1 OUT =01101100001110111100101000111011
# Expected Output 
#  COUT =1 VOUT =1 OUT =01101100001110111100101000111011 
# 
# UVM_INFO ../tb/scoreboard.sv(70) @ 42500: uvm_test_top.alu_env_h.alu_scoreboard_h [2] 
# Actual Input Values  
#  RST =0 A =00101110001000110101100000000100 B =11101011010011011010111011110001 CIN =1 Opcode =110
# Actual Outputs 
#  COUT =1 VOUT =0 OUT =01000010110101011010100100010011
# Expected Output 
#  COUT =0 VOUT =0 OUT =01000010110101011010100100010011 
# 
# UVM_INFO ../tb/scoreboard.sv(70) @ 43500: uvm_test_top.alu_env_h.alu_scoreboard_h [2] 
# Actual Input Values  
#  RST =0 A =01010001001110110001010101011100 B =01110110011111111000011000010101 CIN =1 Opcode =110
# Actual Outputs 
#  COUT =1 VOUT =0 OUT =11011010101110111000111101000111
# Expected Output 
#  COUT =0 VOUT =0 OUT =11011010101110111000111101000111 
# 
# UVM_INFO ../tb/scoreboard.sv(66) @ 44500: uvm_test_top.alu_env_h.alu_scoreboard_h [1] 
# Actual Input Values  
#  RST =0 A =10000110111100101110110011011100 B =00101010001001010001010001100100 CIN =1 Opcode =110
# Actual Outputs 
#  COUT =0 VOUT =0 OUT =01011100110011011101100001111000
# Expected Output 
#  COUT =1 VOUT =1 OUT =01011100110011011101100001111000 
# 
# UVM_INFO ../tb/scoreboard.sv(70) @ 44500: uvm_test_top.alu_env_h.alu_scoreboard_h [2] 
# Actual Input Values  
#  RST =0 A =10000110111100101110110011011100 B =00101010001001010001010001100100 CIN =1 Opcode =110
# Actual Outputs 
#  COUT =0 VOUT =0 OUT =01011100110011011101100001111000
# Expected Output 
#  COUT =1 VOUT =1 OUT =01011100110011011101100001111000 
# 
# UVM_INFO ../tb/scoreboard.sv(66) @ 45500: uvm_test_top.alu_env_h.alu_scoreboard_h [1] 
# Actual Input Values  
#  RST =0 A =11011111101100111111101111000101 B =01011001101110000111101111000101 CIN =1 Opcode =110
# Actual Outputs 
#  COUT =0 VOUT =1 OUT =10000101111110111000000000000000
# Expected Output 
#  COUT =1 VOUT =0 OUT =10000101111110111000000000000000 
# 
# UVM_INFO ../tb/scoreboard.sv(70) @ 45500: uvm_test_top.alu_env_h.alu_scoreboard_h [2] 
# Actual Input Values  
#  RST =0 A =11011111101100111111101111000101 B =01011001101110000111101111000101 CIN =1 Opcode =110
# Actual Outputs 
#  COUT =0 VOUT =1 OUT =10000101111110111000000000000000
# Expected Output 
#  COUT =1 VOUT =0 OUT =10000101111110111000000000000000 
# 
# UVM_INFO ../tb/scoreboard.sv(70) @ 46500: uvm_test_top.alu_env_h.alu_scoreboard_h [2] 
# Actual Input Values  
#  RST =0 A =01110100111100000110101001111111 B =10111101000011001001100111000110 CIN =1 Opcode =110
# Actual Outputs 
#  COUT =1 VOUT =1 OUT =10110111111000111101000010111001
# Expected Output 
#  COUT =0 VOUT =1 OUT =10110111111000111101000010111001 
# 
# UVM_INFO ../tb/scoreboard.sv(70) @ 47500: uvm_test_top.alu_env_h.alu_scoreboard_h [2] 
# Actual Input Values  
#  RST =0 A =01110101010110011000001110110000 B =01101110111011011111000111101000 CIN =1 Opcode =110
# Actual Outputs 
#  COUT =0 VOUT =0 OUT =00000110011010111001000111001000
# Expected Output 
#  COUT =1 VOUT =0 OUT =00000110011010111001000111001000 
# 
# UVM_INFO ../tb/scoreboard.sv(70) @ 48500: uvm_test_top.alu_env_h.alu_scoreboard_h [2] 
# Actual Input Values  
#  RST =0 A =00100000001110100001000000000100 B =00100011000001011001001000110100 CIN =1 Opcode =110
# Actual Outputs 
#  COUT =1 VOUT =0 OUT =11111101001101000111110111010000
# Expected Output 
#  COUT =0 VOUT =0 OUT =11111101001101000111110111010000 
# 
# UVM_INFO ../tb/scoreboard.sv(70) @ 49500: uvm_test_top.alu_env_h.alu_scoreboard_h [2] 
# Actual Input Values  
#  RST =0 A =00101001010111001100110000011000 B =01011000000111001111100110000011 CIN =1 Opcode =110
# Actual Outputs 
#  COUT =1 VOUT =0 OUT =11010001001111111101001010010101
# Expected Output 
#  COUT =0 VOUT =0 OUT =11010001001111111101001010010101 
# 
# UVM_INFO ../tb/scoreboard.sv(70) @ 50500: uvm_test_top.alu_env_h.alu_scoreboard_h [2] 
# Actual Input Values  
#  RST =0 A =01010101010011010101010111111011 B =10111010110110101011010011011010 CIN =1 Opcode =110
# Actual Outputs 
#  COUT =1 VOUT =1 OUT =10011010011100101010000100100001
# Expected Output 
#  COUT =0 VOUT =1 OUT =10011010011100101010000100100001 
# 
# UVM_INFO ../tb/scoreboard.sv(70) @ 51500: uvm_test_top.alu_env_h.alu_scoreboard_h [2] 
# Actual Input Values  
#  RST =0 A =11010011111100010110110101000100 B =00011100011110011010101111110010 CIN =1 Opcode =110
# Actual Outputs 
#  COUT =0 VOUT =0 OUT =10110111011101111100000101010010
# Expected Output 
#  COUT =1 VOUT =0 OUT =10110111011101111100000101010010 
# 
