fpu/trunk/sim/transcript
# do run.do
# ** Warning: (vdel-134) Unable to remove locked optimized design "_opt".  Locker is tchouhan@wario.
# ** Warning: (vdel-134) Unable to remove locked optimized design "_opt1".  Locker is tchouhan@wario.
# ** Warning: (vdel-134) Unable to remove locked optimized design "_opt2".  Locker is tchouhan@wario.
# ** Warning: (vdel-134) Unable to remove locked optimized design "_opt3".  Locker is tchouhan@wario.
# ** Warning: (vdel-134) Unable to remove locked optimized design "_opt4".  Locker is tchouhan@wario.
# ** Warning: (vdel-134) Unable to remove locked optimized design "_opt5".  Locker is tchouhan@wario.
# ** Warning: (vdel-134) Unable to remove locked optimized design "_opt6".  Locker is tchouhan@wario.
# ** Warning: (vlib-34) Library already exists at "work".
# Model Technology ModelSim SE-64 vlog 10.4b Compiler 2015.05 May 26 2015
# Start time: 22:36:56 on Apr 17,2017
# vlog ../lib/gscl45nm.v 
# -- Compiling module AND2X1
# -- Compiling module AND2X2
# -- Compiling module AOI21X1
# -- Compiling module AOI22X1
# -- Compiling module BUFX2
# -- Compiling module BUFX4
# -- Compiling module CLKBUF1
# -- Compiling module CLKBUF2
# -- Compiling module CLKBUF3
# -- Compiling module DFFNEGX1
# -- Compiling module DFFPOSX1
# -- Compiling module DFFSR
# -- Compiling module FAX1
# -- Compiling module HAX1
# -- Compiling module INVX1
# -- Compiling module INVX2
# -- Compiling module INVX4
# -- Compiling module INVX8
# -- Compiling module LATCH
# -- Compiling module MUX2X1
# -- Compiling module NAND2X1
# -- Compiling module NAND3X1
# -- Compiling module NOR2X1
# -- Compiling module NOR3X1
# -- Compiling module OAI21X1
# -- Compiling module OAI22X1
# -- Compiling module OR2X1
# -- Compiling module OR2X2
# -- Compiling module TBUFX1
# -- Compiling module TBUFX2
# -- Compiling module XNOR2X1
# -- Compiling module XOR2X1
# -- Compiling UDP udp_dff
# -- Compiling UDP udp_tlat
# -- Compiling UDP udp_rslat
# -- Compiling UDP udp_mux2
# 
# Top level modules:
# 	AND2X1
# 	AND2X2
# 	AOI21X1
# 	AOI22X1
# 	BUFX2
# 	BUFX4
# 	CLKBUF1
# 	CLKBUF2
# 	CLKBUF3
# 	DFFNEGX1
# 	DFFPOSX1
# 	DFFSR
# 	FAX1
# 	HAX1
# 	INVX1
# 	INVX2
# 	INVX4
# 	INVX8
# 	LATCH
# 	MUX2X1
# 	NAND2X1
# 	NAND3X1
# 	NOR2X1
# 	NOR3X1
# 	OAI21X1
# 	OAI22X1
# 	OR2X1
# 	OR2X2
# 	TBUFX1
# 	TBUFX2
# 	XNOR2X1
# 	XOR2X1
# End time: 22:36:56 on Apr 17,2017, Elapsed time: 0:00:00
# Errors: 0, Warnings: 0
# Model Technology ModelSim SE-64 vlog 10.4b Compiler 2015.05 May 26 2015
# Start time: 22:36:56 on Apr 17,2017
# vlog ../verilog/fpu.v ../verilog/pre_norm.v ../verilog/primitives.v ../verilog/post_norm.v ../verilog/except.v ../verilog/pre_norm_fmul.v 
# -- Compiling module fpu
# -- Compiling module pre_norm
# -- Compiling module add_sub27
# -- Compiling module mul_r2
# -- Compiling module div_r2
# -- Compiling module post_norm
# -- Compiling module except
# -- Compiling module pre_norm_fmul
# 
# Top level modules:
# 	fpu
# End time: 22:36:56 on Apr 17,2017, Elapsed time: 0:00:00
# Errors: 0, Warnings: 0
# Model Technology ModelSim SE-64 vlog 10.4b Compiler 2015.05 May 26 2015
# Start time: 22:36:56 on Apr 17,2017
# vlog "+cover" -sv ../tb/interfaces.sv ../tb/sequences.sv ../tb/coverage.sv ../tb/scoreboard.sv ../tb/modules.sv ../tb/tests.sv ../tb/tb.sv 
# -- Compiling interface dut_in
# -- Compiling interface dut_out
# ** Note: (vlog-2286) Using implicit +incdir+/misc/linuxws/packages/mentor_2015/modelsim/modeltech/uvm-1.1d/../verilog_src/uvm-1.1d/src from import uvm_pkg
# -- Compiling package sequences
# -- Importing package mtiUvm.uvm_pkg (uvm-1.1d Built-in)
# -- Compiling package coverage
# -- Importing package sequences
# -- Compiling package scoreboard
# -- Compiling package modules_pkg
# -- Importing package coverage
# -- Importing package scoreboard
# -- Compiling package tests
# -- Importing package modules_pkg
# -- Compiling package tb_sv_unit
# -- Importing package mtiUvm.uvm_pkg (uvm-1.1d Built-in)
# -- Importing package modules_pkg
# -- Importing package sequences
# -- Importing package coverage
# -- Importing package scoreboard
# -- Importing package tests
# -- Compiling module dut
# -- Compiling module top
# 
# Top level modules:
# 	top
# End time: 22:36:58 on Apr 17,2017, Elapsed time: 0:00:02
# Errors: 0, Warnings: 0
# vsim -c top 
# Start time: 22:36:58 on Apr 17,2017
# ** Note: (vsim-3812) Design is being optimized...
# //  ModelSim SE-64 10.4b May 26 2015 Linux 2.6.32-642.11.1.el6.x86_64
# //
# //  Copyright 1991-2015 Mentor Graphics Corporation
# //  All Rights Reserved.
# //
# //  THIS WORK CONTAINS TRADE SECRET AND PROPRIETARY INFORMATION
# //  WHICH IS THE PROPERTY OF MENTOR GRAPHICS CORPORATION OR ITS
# //  LICENSORS AND IS SUBJECT TO LICENSE TERMS.
# //  THIS DOCUMENT CONTAINS TRADE SECRETS AND COMMERCIAL OR FINANCIAL
# //  INFORMATION THAT ARE PRIVILEGED, CONFIDENTIAL, AND EXEMPT FROM
# //  DISCLOSURE UNDER THE FREEDOM OF INFORMATION ACT, 5 U.S.C. SECTION 552.
# //  FURTHERMORE, THIS INFORMATION IS PROHIBITED FROM DISCLOSURE UNDER
# //  THE TRADE SECRETS ACT, 18 U.S.C. SECTION 1905.
# //
# Loading sv_std.std
# Loading mtiUvm.uvm_pkg
# Loading work.sequences(fast)
# Loading work.scoreboard(fast)
# Loading work.coverage(fast)
# Loading work.modules_pkg(fast)
# Loading work.tests(fast)
# Loading work.tb_sv_unit(fast)
# Loading work.top(fast)
# Loading work.fpu(fast)
# Loading mtiUvm.questa_uvm_pkg(fast)
# Loading work.dut_in(fast)
# Loading work.dut_out(fast)
# Loading /misc/linuxws/packages/mentor_2015/modelsim/modeltech/uvm-1.1d/linux_x86_64/uvm_dpi.so
# ----------------------------------------------------------------
# UVM-1.1d
# (C) 2007-2013 Mentor Graphics Corporation
# (C) 2007-2013 Cadence Design Systems, Inc.
# (C) 2006-2013 Synopsys, Inc.
# (C) 2011-2013 Cypress Semiconductor Corp.
# ----------------------------------------------------------------
# 
#   ***********       IMPORTANT RELEASE NOTES         ************
# 
#   You are using a version of the UVM library that has been compiled
#   with `UVM_NO_DEPRECATED undefined.
#   See http://www.eda.org/svdb/view.php?id=3313 for more details.
# 
#   You are using a version of the UVM library that has been compiled
#   with `UVM_OBJECT_MUST_HAVE_CONSTRUCTOR undefined.
#   See http://www.eda.org/svdb/view.php?id=3770 for more details.
# 
#       (Specify +UVM_NO_RELNOTES to turn off this notice)
# 
# UVM_INFO verilog_src/questa_uvm_pkg-1.2/src/questa_uvm_pkg.sv(215) @ 0: reporter [Questa UVM] QUESTA_UVM-1.2.2
# UVM_INFO verilog_src/questa_uvm_pkg-1.2/src/questa_uvm_pkg.sv(217) @ 0: reporter [Questa UVM]  questa_uvm::init(+struct)
# UVM_INFO @ 0: reporter [RNTST] Running test test1...
# UVM_INFO ../tb/scoreboard.sv(163) @ 250: uvm_test_top.alu_env_h.alu_scoreboard_h [int-flt] OUT is wrong!!! frac_final=200000 exp_ans = 81 count = 28
# UVM_INFO ../tb/scoreboard.sv(163) @ 350: uvm_test_top.alu_env_h.alu_scoreboard_h [int-flt] OUT is wrong!!! frac_final=200000 exp_ans = 81 count = 28
# UVM_INFO ../tb/scoreboard.sv(163) @ 450: uvm_test_top.alu_env_h.alu_scoreboard_h [int-flt] OUT is wrong!!! frac_final=200000 exp_ans = 81 count = 28
# UVM_INFO ../tb/scoreboard.sv(163) @ 550: uvm_test_top.alu_env_h.alu_scoreboard_h [int-flt] OUT is wrong!!! frac_final=200000 exp_ans = 81 count = 28
# UVM_INFO ../tb/scoreboard.sv(90) @ 550: uvm_test_top.alu_env_h.alu_scoreboard_h [ERROR MSG-6] Inexact is wrong!!! SB ine: 0, DUT ine: 1, DUT out: ceffffff, SB out: 40a00000, In A: 00000005, In B: 614ddb94
# UVM_INFO ../tb/scoreboard.sv(99) @ 550: uvm_test_top.alu_env_h.alu_scoreboard_h [ERROR MSG-9] OUT is wrong!!! DUT out: ceffffff, SB out: 40a00000, In A: 00000005, In B: 614ddb94
# UVM_INFO ../tb/scoreboard.sv(163) @ 650: uvm_test_top.alu_env_h.alu_scoreboard_h [int-flt] OUT is wrong!!! frac_final=200000 exp_ans = 81 count = 28
# UVM_INFO ../tb/scoreboard.sv(90) @ 650: uvm_test_top.alu_env_h.alu_scoreboard_h [ERROR MSG-6] Inexact is wrong!!! SB ine: 0, DUT ine: 1, DUT out: ceffffff, SB out: 40a00000, In A: 00000005, In B: a018891c
# UVM_INFO ../tb/scoreboard.sv(99) @ 650: uvm_test_top.alu_env_h.alu_scoreboard_h [ERROR MSG-9] OUT is wrong!!! DUT out: ceffffff, SB out: 40a00000, In A: 00000005, In B: a018891c
# UVM_INFO ../tb/scoreboard.sv(163) @ 750: uvm_test_top.alu_env_h.alu_scoreboard_h [int-flt] OUT is wrong!!! frac_final=200000 exp_ans = 81 count = 28
# UVM_INFO ../tb/scoreboard.sv(90) @ 750: uvm_test_top.alu_env_h.alu_scoreboard_h [ERROR MSG-6] Inexact is wrong!!! SB ine: 0, DUT ine: 1, DUT out: ceffffff, SB out: 40a00000, In A: 00000005, In B: 306f8b91
# UVM_INFO ../tb/scoreboard.sv(99) @ 750: uvm_test_top.alu_env_h.alu_scoreboard_h [ERROR MSG-9] OUT is wrong!!! DUT out: ceffffff, SB out: 40a00000, In A: 00000005, In B: 306f8b91
# UVM_INFO ../tb/scoreboard.sv(163) @ 850: uvm_test_top.alu_env_h.alu_scoreboard_h [int-flt] OUT is wrong!!! frac_final=200000 exp_ans = 81 count = 28
# UVM_INFO ../tb/scoreboard.sv(163) @ 950: uvm_test_top.alu_env_h.alu_scoreboard_h [int-flt] OUT is wrong!!! frac_final=200000 exp_ans = 81 count = 28
# UVM_INFO ../tb/scoreboard.sv(90) @ 950: uvm_test_top.alu_env_h.alu_scoreboard_h [ERROR MSG-6] Inexact is wrong!!! SB ine: 0, DUT ine: 1, DUT out: ceffffff, SB out: 40a00000, In A: 00000005, In B: d6648f9f
# UVM_INFO ../tb/scoreboard.sv(99) @ 950: uvm_test_top.alu_env_h.alu_scoreboard_h [ERROR MSG-9] OUT is wrong!!! DUT out: ceffffff, SB out: 40a00000, In A: 00000005, In B: d6648f9f
# UVM_INFO ../tb/scoreboard.sv(163) @ 1050: uvm_test_top.alu_env_h.alu_scoreboard_h [int-flt] OUT is wrong!!! frac_final=200000 exp_ans = 81 count = 28
# UVM_INFO ../tb/scoreboard.sv(163) @ 1150: uvm_test_top.alu_env_h.alu_scoreboard_h [int-flt] OUT is wrong!!! frac_final=200000 exp_ans = 81 count = 28
# UVM_INFO ../tb/scoreboard.sv(163) @ 1250: uvm_test_top.alu_env_h.alu_scoreboard_h [int-flt] OUT is wrong!!! frac_final=200000 exp_ans = 81 count = 28
# UVM_INFO ../tb/scoreboard.sv(90) @ 1250: uvm_test_top.alu_env_h.alu_scoreboard_h [ERROR MSG-6] Inexact is wrong!!! SB ine: 0, DUT ine: 1, DUT out: cf000000, SB out: 40a00000, In A: 00000005, In B: 9b90d843
# UVM_INFO ../tb/scoreboard.sv(99) @ 1250: uvm_test_top.alu_env_h.alu_scoreboard_h [ERROR MSG-9] OUT is wrong!!! DUT out: cf000000, SB out: 40a00000, In A: 00000005, In B: 9b90d843
# UVM_INFO ../tb/scoreboard.sv(163) @ 1350: uvm_test_top.alu_env_h.alu_scoreboard_h [int-flt] OUT is wrong!!! frac_final=200000 exp_ans = 81 count = 28
# UVM_INFO ../tb/scoreboard.sv(163) @ 1450: uvm_test_top.alu_env_h.alu_scoreboard_h [int-flt] OUT is wrong!!! frac_final=200000 exp_ans = 81 count = 28
# UVM_INFO ../tb/scoreboard.sv(90) @ 1450: uvm_test_top.alu_env_h.alu_scoreboard_h [ERROR MSG-6] Inexact is wrong!!! SB ine: 0, DUT ine: 1, DUT out: ceffffff, SB out: 40a00000, In A: 00000005, In B: f0b417fc
# UVM_INFO ../tb/scoreboard.sv(99) @ 1450: uvm_test_top.alu_env_h.alu_scoreboard_h [ERROR MSG-9] OUT is wrong!!! DUT out: ceffffff, SB out: 40a00000, In A: 00000005, In B: f0b417fc
# UVM_INFO ../tb/scoreboard.sv(163) @ 1550: uvm_test_top.alu_env_h.alu_scoreboard_h [int-flt] OUT is wrong!!! frac_final=200000 exp_ans = 81 count = 28
# UVM_INFO ../tb/scoreboard.sv(90) @ 1550: uvm_test_top.alu_env_h.alu_scoreboard_h [ERROR MSG-6] Inexact is wrong!!! SB ine: 0, DUT ine: 1, DUT out: ceffffff, SB out: 40a00000, In A: 00000005, In B: 2b3b7da8
# UVM_INFO ../tb/scoreboard.sv(99) @ 1550: uvm_test_top.alu_env_h.alu_scoreboard_h [ERROR MSG-9] OUT is wrong!!! DUT out: ceffffff, SB out: 40a00000, In A: 00000005, In B: 2b3b7da8
# UVM_INFO ../tb/scoreboard.sv(163) @ 1650: uvm_test_top.alu_env_h.alu_scoreboard_h [int-flt] OUT is wrong!!! frac_final=200000 exp_ans = 81 count = 28
# UVM_INFO ../tb/scoreboard.sv(163) @ 1750: uvm_test_top.alu_env_h.alu_scoreboard_h [int-flt] OUT is wrong!!! frac_final=200000 exp_ans = 81 count = 28
# UVM_INFO ../tb/scoreboard.sv(90) @ 1750: uvm_test_top.alu_env_h.alu_scoreboard_h [ERROR MSG-6] Inexact is wrong!!! SB ine: 0, DUT ine: 1, DUT out: ceffffff, SB out: 40a00000, In A: 00000005, In B: 6df1faf2
# UVM_INFO ../tb/scoreboard.sv(99) @ 1750: uvm_test_top.alu_env_h.alu_scoreboard_h [ERROR MSG-9] OUT is wrong!!! DUT out: ceffffff, SB out: 40a00000, In A: 00000005, In B: 6df1faf2
# UVM_INFO ../tb/scoreboard.sv(163) @ 1850: uvm_test_top.alu_env_h.alu_scoreboard_h [int-flt] OUT is wrong!!! frac_final=200000 exp_ans = 81 count = 28
# UVM_INFO ../tb/scoreboard.sv(163) @ 1950: uvm_test_top.alu_env_h.alu_scoreboard_h [int-flt] OUT is wrong!!! frac_final=200000 exp_ans = 81 count = 28
# UVM_INFO ../tb/scoreboard.sv(90) @ 1950: uvm_test_top.alu_env_h.alu_scoreboard_h [ERROR MSG-6] Inexact is wrong!!! SB ine: 0, DUT ine: 1, DUT out: cf000000, SB out: 40a00000, In A: 00000005, In B: 20851210
# UVM_INFO ../tb/scoreboard.sv(99) @ 1950: uvm_test_top.alu_env_h.alu_scoreboard_h [ERROR MSG-9] OUT is wrong!!! DUT out: cf000000, SB out: 40a00000, In A: 00000005, In B: 20851210
# UVM_INFO ../tb/scoreboard.sv(163) @ 2050: uvm_test_top.alu_env_h.alu_scoreboard_h [int-flt] OUT is wrong!!! frac_final=200000 exp_ans = 81 count = 28
# UVM_INFO ../tb/scoreboard.sv(163) @ 2150: uvm_test_top.alu_env_h.alu_scoreboard_h [int-flt] OUT is wrong!!! frac_final=200000 exp_ans = 81 count = 28
# UVM_INFO ../tb/scoreboard.sv(163) @ 2250: uvm_test_top.alu_env_h.alu_scoreboard_h [int-flt] OUT is wrong!!! frac_final=200000 exp_ans = 81 count = 28
# UVM_INFO ../tb/scoreboard.sv(163) @ 2350: uvm_test_top.alu_env_h.alu_scoreboard_h [int-flt] OUT is wrong!!! frac_final=200000 exp_ans = 81 count = 28
# UVM_INFO ../tb/scoreboard.sv(90) @ 2350: uvm_test_top.alu_env_h.alu_scoreboard_h [ERROR MSG-6] Inexact is wrong!!! SB ine: 0, DUT ine: 1, DUT out: ceffffff, SB out: 40a00000, In A: 00000005, In B: 1b5ad5e5
# UVM_INFO ../tb/scoreboard.sv(99) @ 2350: uvm_test_top.alu_env_h.alu_scoreboard_h [ERROR MSG-9] OUT is wrong!!! DUT out: ceffffff, SB out: 40a00000, In A: 00000005, In B: 1b5ad5e5
# UVM_INFO ../tb/scoreboard.sv(163) @ 2450: uvm_test_top.alu_env_h.alu_scoreboard_h [int-flt] OUT is wrong!!! frac_final=200000 exp_ans = 81 count = 28
# UVM_INFO ../tb/scoreboard.sv(163) @ 2550: uvm_test_top.alu_env_h.alu_scoreboard_h [int-flt] OUT is wrong!!! frac_final=200000 exp_ans = 81 count = 28
# UVM_INFO ../tb/scoreboard.sv(90) @ 2550: uvm_test_top.alu_env_h.alu_scoreboard_h [ERROR MSG-6] Inexact is wrong!!! SB ine: 0, DUT ine: 1, DUT out: cf000000, SB out: 40a00000, In A: 00000005, In B: ee30a37e
# UVM_INFO ../tb/scoreboard.sv(99) @ 2550: uvm_test_top.alu_env_h.alu_scoreboard_h [ERROR MSG-9] OUT is wrong!!! DUT out: cf000000, SB out: 40a00000, In A: 00000005, In B: ee30a37e
# UVM_INFO ../tb/scoreboard.sv(163) @ 2650: uvm_test_top.alu_env_h.alu_scoreboard_h [int-flt] OUT is wrong!!! frac_final=200000 exp_ans = 81 count = 28
# UVM_INFO ../tb/scoreboard.sv(163) @ 2750: uvm_test_top.alu_env_h.alu_scoreboard_h [int-flt] OUT is wrong!!! frac_final=200000 exp_ans = 81 count = 28
# UVM_INFO ../tb/scoreboard.sv(163) @ 2850: uvm_test_top.alu_env_h.alu_scoreboard_h [int-flt] OUT is wrong!!! frac_final=200000 exp_ans = 81 count = 28
# UVM_INFO ../tb/scoreboard.sv(90) @ 2850: uvm_test_top.alu_env_h.alu_scoreboard_h [ERROR MSG-6] Inexact is wrong!!! SB ine: 0, DUT ine: 1, DUT out: cf000000, SB out: 40a00000, In A: 00000005, In B: dd7501c0
# UVM_INFO ../tb/scoreboard.sv(99) @ 2850: uvm_test_top.alu_env_h.alu_scoreboard_h [ERROR MSG-9] OUT is wrong!!! DUT out: cf000000, SB out: 40a00000, In A: 00000005, In B: dd7501c0
# UVM_INFO ../tb/scoreboard.sv(163) @ 2950: uvm_test_top.alu_env_h.alu_scoreboard_h [int-flt] OUT is wrong!!! frac_final=200000 exp_ans = 81 count = 28
# UVM_INFO ../tb/scoreboard.sv(163) @ 3050: uvm_test_top.alu_env_h.alu_scoreboard_h [int-flt] OUT is wrong!!! frac_final=200000 exp_ans = 81 count = 28
# UVM_INFO ../tb/scoreboard.sv(90) @ 3050: uvm_test_top.alu_env_h.alu_scoreboard_h [ERROR MSG-6] Inexact is wrong!!! SB ine: 0, DUT ine: 1, DUT out: cf000000, SB out: 40a00000, In A: 00000005, In B: 98212e23
# UVM_INFO ../tb/scoreboard.sv(99) @ 3050: uvm_test_top.alu_env_h.alu_scoreboard_h [ERROR MSG-9] OUT is wrong!!! DUT out: cf000000, SB out: 40a00000, In A: 00000005, In B: 98212e23
# UVM_INFO ../tb/scoreboard.sv(163) @ 3150: uvm_test_top.alu_env_h.alu_scoreboard_h [int-flt] OUT is wrong!!! frac_final=200000 exp_ans = 81 count = 28
# UVM_INFO ../tb/scoreboard.sv(90) @ 3150: uvm_test_top.alu_env_h.alu_scoreboard_h [ERROR MSG-6] Inexact is wrong!!! SB ine: 0, DUT ine: 1, DUT out: ceffffff, SB out: 40a00000, In A: 00000005, In B: dc4de2e9
# UVM_INFO ../tb/scoreboard.sv(99) @ 3150: uvm_test_top.alu_env_h.alu_scoreboard_h [ERROR MSG-9] OUT is wrong!!! DUT out: ceffffff, SB out: 40a00000, In A: 00000005, In B: dc4de2e9
# UVM_INFO ../tb/scoreboard.sv(163) @ 3250: uvm_test_top.alu_env_h.alu_scoreboard_h [int-flt] OUT is wrong!!! frac_final=200000 exp_ans = 81 count = 28
# UVM_INFO ../tb/scoreboard.sv(90) @ 3250: uvm_test_top.alu_env_h.alu_scoreboard_h [ERROR MSG-6] Inexact is wrong!!! SB ine: 0, DUT ine: 1, DUT out: cf000000, SB out: 40a00000, In A: 00000005, In B: dd18c800
# UVM_INFO ../tb/scoreboard.sv(99) @ 3250: uvm_test_top.alu_env_h.alu_scoreboard_h [ERROR MSG-9] OUT is wrong!!! DUT out: cf000000, SB out: 40a00000, In A: 00000005, In B: dd18c800
# UVM_INFO ../tb/scoreboard.sv(163) @ 3350: uvm_test_top.alu_env_h.alu_scoreboard_h [int-flt] OUT is wrong!!! frac_final=200000 exp_ans = 81 count = 28
# UVM_INFO ../tb/scoreboard.sv(90) @ 3350: uvm_test_top.alu_env_h.alu_scoreboard_h [ERROR MSG-6] Inexact is wrong!!! SB ine: 0, DUT ine: 1, DUT out: ceffffff, SB out: 40a00000, In A: 00000005, In B: fd719794
# UVM_INFO ../tb/scoreboard.sv(99) @ 3350: uvm_test_top.alu_env_h.alu_scoreboard_h [ERROR MSG-9] OUT is wrong!!! DUT out: ceffffff, SB out: 40a00000, In A: 00000005, In B: fd719794
# UVM_INFO ../tb/scoreboard.sv(163) @ 3450: uvm_test_top.alu_env_h.alu_scoreboard_h [int-flt] OUT is wrong!!! frac_final=200000 exp_ans = 81 count = 28
# UVM_INFO ../tb/scoreboard.sv(90) @ 3450: uvm_test_top.alu_env_h.alu_scoreboard_h [ERROR MSG-6] Inexact is wrong!!! SB ine: 0, DUT ine: 1, DUT out: cf000000, SB out: 40a00000, In A: 00000005, In B: f901813c
# UVM_INFO ../tb/scoreboard.sv(99) @ 3450: uvm_test_top.alu_env_h.alu_scoreboard_h [ERROR MSG-9] OUT is wrong!!! DUT out: cf000000, SB out: 40a00000, In A: 00000005, In B: f901813c
# UVM_INFO ../tb/scoreboard.sv(163) @ 3550: uvm_test_top.alu_env_h.alu_scoreboard_h [int-flt] OUT is wrong!!! frac_final=200000 exp_ans = 81 count = 28
# UVM_INFO ../tb/scoreboard.sv(90) @ 3550: uvm_test_top.alu_env_h.alu_scoreboard_h [ERROR MSG-6] Inexact is wrong!!! SB ine: 0, DUT ine: 1, DUT out: ceffffff, SB out: 40a00000, In A: 00000005, In B: 75841b18
# UVM_INFO ../tb/scoreboard.sv(99) @ 3550: uvm_test_top.alu_env_h.alu_scoreboard_h [ERROR MSG-9] OUT is wrong!!! DUT out: ceffffff, SB out: 40a00000, In A: 00000005, In B: 75841b18
# UVM_INFO ../tb/scoreboard.sv(163) @ 3650: uvm_test_top.alu_env_h.alu_scoreboard_h [int-flt] OUT is wrong!!! frac_final=200000 exp_ans = 81 count = 28
# UVM_INFO ../tb/scoreboard.sv(90) @ 3650: uvm_test_top.alu_env_h.alu_scoreboard_h [ERROR MSG-6] Inexact is wrong!!! SB ine: 0, DUT ine: 1, DUT out: cf000000, SB out: 40a00000, In A: 00000005, In B: 4f021dcd
# UVM_INFO ../tb/scoreboard.sv(99) @ 3650: uvm_test_top.alu_env_h.alu_scoreboard_h [ERROR MSG-9] OUT is wrong!!! DUT out: cf000000, SB out: 40a00000, In A: 00000005, In B: 4f021dcd
# UVM_INFO ../tb/scoreboard.sv(163) @ 3750: uvm_test_top.alu_env_h.alu_scoreboard_h [int-flt] OUT is wrong!!! frac_final=200000 exp_ans = 81 count = 28
# UVM_INFO ../tb/scoreboard.sv(90) @ 3750: uvm_test_top.alu_env_h.alu_scoreboard_h [ERROR MSG-6] Inexact is wrong!!! SB ine: 0, DUT ine: 1, DUT out: ceffffff, SB out: 40a00000, In A: 00000005, In B: 40d6ea4b
# UVM_INFO ../tb/scoreboard.sv(99) @ 3750: uvm_test_top.alu_env_h.alu_scoreboard_h [ERROR MSG-9] OUT is wrong!!! DUT out: ceffffff, SB out: 40a00000, In A: 00000005, In B: 40d6ea4b
# UVM_INFO ../tb/scoreboard.sv(163) @ 3850: uvm_test_top.alu_env_h.alu_scoreboard_h [int-flt] OUT is wrong!!! frac_final=200000 exp_ans = 81 count = 28
# UVM_INFO ../tb/scoreboard.sv(163) @ 3950: uvm_test_top.alu_env_h.alu_scoreboard_h [int-flt] OUT is wrong!!! frac_final=200000 exp_ans = 81 count = 28
# UVM_INFO ../tb/scoreboard.sv(163) @ 4050: uvm_test_top.alu_env_h.alu_scoreboard_h [int-flt] OUT is wrong!!! frac_final=200000 exp_ans = 81 count = 28
# UVM_INFO ../tb/scoreboard.sv(163) @ 4150: uvm_test_top.alu_env_h.alu_scoreboard_h [int-flt] OUT is wrong!!! frac_final=200000 exp_ans = 81 count = 28
# UVM_INFO ../tb/scoreboard.sv(90) @ 4150: uvm_test_top.alu_env_h.alu_scoreboard_h [ERROR MSG-6] Inexact is wrong!!! SB ine: 0, DUT ine: 1, DUT out: cf000000, SB out: 40a00000, In A: 00000005, In B: 9f43d9e1
# UVM_INFO ../tb/scoreboard.sv(99) @ 4150: uvm_test_top.alu_env_h.alu_scoreboard_h [ERROR MSG-9] OUT is wrong!!! DUT out: cf000000, SB out: 40a00000, In A: 00000005, In B: 9f43d9e1
# UVM_INFO ../tb/scoreboard.sv(163) @ 4250: uvm_test_top.alu_env_h.alu_scoreboard_h [int-flt] OUT is wrong!!! frac_final=200000 exp_ans = 81 count = 28
# UVM_INFO ../tb/scoreboard.sv(90) @ 4250: uvm_test_top.alu_env_h.alu_scoreboard_h [ERROR MSG-6] Inexact is wrong!!! SB ine: 0, DUT ine: 1, DUT out: ceffffff, SB out: 40a00000, In A: 00000005, In B: b07c82bc
# UVM_INFO ../tb/scoreboard.sv(99) @ 4250: uvm_test_top.alu_env_h.alu_scoreboard_h [ERROR MSG-9] OUT is wrong!!! DUT out: ceffffff, SB out: 40a00000, In A: 00000005, In B: b07c82bc
# UVM_INFO ../tb/scoreboard.sv(163) @ 4350: uvm_test_top.alu_env_h.alu_scoreboard_h [int-flt] OUT is wrong!!! frac_final=200000 exp_ans = 81 count = 28
# UVM_INFO ../tb/scoreboard.sv(90) @ 4350: uvm_test_top.alu_env_h.alu_scoreboard_h [ERROR MSG-6] Inexact is wrong!!! SB ine: 0, DUT ine: 1, DUT out: cf000000, SB out: 40a00000, In A: 00000005, In B: a273d6e4
# UVM_INFO ../tb/scoreboard.sv(99) @ 4350: uvm_test_top.alu_env_h.alu_scoreboard_h [ERROR MSG-9] OUT is wrong!!! DUT out: cf000000, SB out: 40a00000, In A: 00000005, In B: a273d6e4
# UVM_INFO ../tb/scoreboard.sv(163) @ 4450: uvm_test_top.alu_env_h.alu_scoreboard_h [int-flt] OUT is wrong!!! frac_final=200000 exp_ans = 81 count = 28
# UVM_INFO ../tb/scoreboard.sv(90) @ 4450: uvm_test_top.alu_env_h.alu_scoreboard_h [ERROR MSG-6] Inexact is wrong!!! SB ine: 0, DUT ine: 1, DUT out: cf000000, SB out: 40a00000, In A: 00000005, In B: 74909df4
# UVM_INFO ../tb/scoreboard.sv(99) @ 4450: uvm_test_top.alu_env_h.alu_scoreboard_h [ERROR MSG-9] OUT is wrong!!! DUT out: cf000000, SB out: 40a00000, In A: 00000005, In B: 74909df4
# UVM_INFO ../tb/scoreboard.sv(163) @ 4550: uvm_test_top.alu_env_h.alu_scoreboard_h [int-flt] OUT is wrong!!! frac_final=200000 exp_ans = 81 count = 28
# UVM_INFO ../tb/scoreboard.sv(90) @ 4550: uvm_test_top.alu_env_h.alu_scoreboard_h [ERROR MSG-6] Inexact is wrong!!! SB ine: 0, DUT ine: 1, DUT out: cf000000, SB out: 40a00000, In A: 00000005, In B: 9ba03590
# UVM_INFO ../tb/scoreboard.sv(99) @ 4550: uvm_test_top.alu_env_h.alu_scoreboard_h [ERROR MSG-9] OUT is wrong!!! DUT out: cf000000, SB out: 40a00000, In A: 00000005, In B: 9ba03590
# UVM_INFO ../tb/scoreboard.sv(163) @ 4650: uvm_test_top.alu_env_h.alu_scoreboard_h [int-flt] OUT is wrong!!! frac_final=200000 exp_ans = 81 count = 28
# UVM_INFO ../tb/scoreboard.sv(90) @ 4650: uvm_test_top.alu_env_h.alu_scoreboard_h [ERROR MSG-6] Inexact is wrong!!! SB ine: 0, DUT ine: 1, DUT out: ceffffff, SB out: 40a00000, In A: 00000005, In B: 0d37d58f
# UVM_INFO ../tb/scoreboard.sv(99) @ 4650: uvm_test_top.alu_env_h.alu_scoreboard_h [ERROR MSG-9] OUT is wrong!!! DUT out: ceffffff, SB out: 40a00000, In A: 00000005, In B: 0d37d58f
# UVM_INFO ../tb/scoreboard.sv(163) @ 4750: uvm_test_top.alu_env_h.alu_scoreboard_h [int-flt] OUT is wrong!!! frac_final=200000 exp_ans = 81 count = 28
# UVM_INFO ../tb/scoreboard.sv(163) @ 4850: uvm_test_top.alu_env_h.alu_scoreboard_h [int-flt] OUT is wrong!!! frac_final=200000 exp_ans = 81 count = 28
# UVM_INFO ../tb/scoreboard.sv(90) @ 4850: uvm_test_top.alu_env_h.alu_scoreboard_h [ERROR MSG-6] Inexact is wrong!!! SB ine: 0, DUT ine: 1, DUT out: ceffffff, SB out: 40a00000, In A: 00000005, In B: cc498f89
# UVM_INFO ../tb/scoreboard.sv(99) @ 4850: uvm_test_top.alu_env_h.alu_scoreboard_h [ERROR MSG-9] OUT is wrong!!! DUT out: ceffffff, SB out: 40a00000, In A: 00000005, In B: cc498f89
# UVM_INFO ../tb/scoreboard.sv(163) @ 4950: uvm_test_top.alu_env_h.alu_scoreboard_h [int-flt] OUT is wrong!!! frac_final=200000 exp_ans = 81 count = 28
# UVM_INFO ../tb/scoreboard.sv(163) @ 5050: uvm_test_top.alu_env_h.alu_scoreboard_h [int-flt] OUT is wrong!!! frac_final=200000 exp_ans = 81 count = 28
# UVM_INFO ../tb/scoreboard.sv(90) @ 5050: uvm_test_top.alu_env_h.alu_scoreboard_h [ERROR MSG-6] Inexact is wrong!!! SB ine: 0, DUT ine: 1, DUT out: cf000000, SB out: 40a00000, In A: 00000005, In B: 0bb9f8aa
