fpu/trunk/sim/transcript
# do run.do
# ** Warning: (vdel-134) Unable to remove locked optimized design "_opt".  Locker is svenugopalan@luigi.
# ** Warning: (vdel-134) Unable to remove locked optimized design "_opt1".  Locker is svenugopalan@luigi.
# ** Warning: (vdel-134) Unable to remove locked optimized design "_opt2".  Locker is svenugopalan@luigi.
# ** Warning: (vdel-134) Unable to remove locked optimized design "_opt3".  Locker is svenugopalan@luigi.
# ** Warning: (vdel-134) Unable to remove locked optimized design "_opt4".  Locker is svenugopalan@luigi.
# ** Warning: (vdel-134) Unable to remove locked optimized design "_opt5".  Locker is svenugopalan@luigi.
# ** Warning: (vdel-134) Unable to remove locked optimized design "_opt6".  Locker is svenugopalan@luigi.
# ** Warning: (vdel-134) Unable to remove locked optimized design "_opt7".  Locker is svenugopalan@luigi.
# ** Warning: (vdel-134) Unable to remove locked optimized design "_opt8".  Locker is svenugopalan@luigi.
# ** Warning: (vdel-134) Unable to remove locked optimized design "_opt9".  Locker is svenugopalan@luigi.
# ** Warning: (vlib-34) Library already exists at "work".
# Model Technology ModelSim SE-64 vlog 10.4b Compiler 2015.05 May 26 2015
# Start time: 22:04:25 on Apr 10,2017
# vlog ../lib/gscl45nm.v 
# -- Compiling module AND2X1
# -- Compiling module AND2X2
# -- Compiling module AOI21X1
# -- Compiling module AOI22X1
# -- Compiling module BUFX2
# -- Compiling module BUFX4
# -- Compiling module CLKBUF1
# -- Compiling module CLKBUF2
# -- Compiling module CLKBUF3
# -- Compiling module DFFNEGX1
# -- Compiling module DFFPOSX1
# -- Compiling module DFFSR
# -- Compiling module FAX1
# -- Compiling module HAX1
# -- Compiling module INVX1
# -- Compiling module INVX2
# -- Compiling module INVX4
# -- Compiling module INVX8
# -- Compiling module LATCH
# -- Compiling module MUX2X1
# -- Compiling module NAND2X1
# -- Compiling module NAND3X1
# -- Compiling module NOR2X1
# -- Compiling module NOR3X1
# -- Compiling module OAI21X1
# -- Compiling module OAI22X1
# -- Compiling module OR2X1
# -- Compiling module OR2X2
# -- Compiling module TBUFX1
# -- Compiling module TBUFX2
# -- Compiling module XNOR2X1
# -- Compiling module XOR2X1
# -- Compiling UDP udp_dff
# -- Compiling UDP udp_tlat
# -- Compiling UDP udp_rslat
# -- Compiling UDP udp_mux2
# 
# Top level modules:
# 	AND2X1
# 	AND2X2
# 	AOI21X1
# 	AOI22X1
# 	BUFX2
# 	BUFX4
# 	CLKBUF1
# 	CLKBUF2
# 	CLKBUF3
# 	DFFNEGX1
# 	DFFPOSX1
# 	DFFSR
# 	FAX1
# 	HAX1
# 	INVX1
# 	INVX2
# 	INVX4
# 	INVX8
# 	LATCH
# 	MUX2X1
# 	NAND2X1
# 	NAND3X1
# 	NOR2X1
# 	NOR3X1
# 	OAI21X1
# 	OAI22X1
# 	OR2X1
# 	OR2X2
# 	TBUFX1
# 	TBUFX2
# 	XNOR2X1
# 	XOR2X1
# End time: 22:04:25 on Apr 10,2017, Elapsed time: 0:00:00
# Errors: 0, Warnings: 0
# Model Technology ModelSim SE-64 vlog 10.4b Compiler 2015.05 May 26 2015
# Start time: 22:04:25 on Apr 10,2017
# vlog ../verilog/fpu.v ../verilog/pre_norm.v ../verilog/primitives.v ../verilog/post_norm.v ../verilog/except.v ../verilog/pre_norm_fmul.v 
# -- Compiling module fpu
# -- Compiling module pre_norm
# -- Compiling module add_sub27
# -- Compiling module mul_r2
# -- Compiling module div_r2
# -- Compiling module post_norm
# -- Compiling module except
# -- Compiling module pre_norm_fmul
# 
# Top level modules:
# 	fpu
# End time: 22:04:25 on Apr 10,2017, Elapsed time: 0:00:00
# Errors: 0, Warnings: 0
# Model Technology ModelSim SE-64 vlog 10.4b Compiler 2015.05 May 26 2015
# Start time: 22:04:25 on Apr 10,2017
# vlog "+cover" -sv ../tb/interfaces.sv ../tb/sequences.sv ../tb/coverage.sv ../tb/scoreboard.sv ../tb/modules.sv ../tb/tests.sv ../tb/tb.sv 
# -- Compiling interface dut_in
# -- Compiling interface dut_out
# ** Note: (vlog-2286) Using implicit +incdir+/misc/linuxws/packages/mentor_2015/modelsim/modeltech/uvm-1.1d/../verilog_src/uvm-1.1d/src from import uvm_pkg
# -- Compiling package sequences
# -- Importing package mtiUvm.uvm_pkg (uvm-1.1d Built-in)
# -- Compiling package coverage
# -- Importing package sequences
# -- Compiling package scoreboard
# -- Compiling package modules_pkg
# -- Importing package coverage
# -- Importing package scoreboard
# -- Compiling package tests
# -- Importing package modules_pkg
# -- Compiling package tb_sv_unit
# -- Importing package mtiUvm.uvm_pkg (uvm-1.1d Built-in)
# -- Importing package modules_pkg
# -- Importing package sequences
# -- Importing package coverage
# -- Importing package scoreboard
# -- Importing package tests
# -- Compiling module dut
# -- Compiling module top
# 
# Top level modules:
# 	top
# End time: 22:04:26 on Apr 10,2017, Elapsed time: 0:00:01
# Errors: 0, Warnings: 0
# vsim -c top 
# Start time: 22:04:26 on Apr 10,2017
# ** Note: (vsim-3812) Design is being optimized...
# //  ModelSim SE-64 10.4b May 26 2015 Linux 2.6.32-642.11.1.el6.x86_64
# //
# //  Copyright 1991-2015 Mentor Graphics Corporation
# //  All Rights Reserved.
# //
# //  THIS WORK CONTAINS TRADE SECRET AND PROPRIETARY INFORMATION
# //  WHICH IS THE PROPERTY OF MENTOR GRAPHICS CORPORATION OR ITS
# //  LICENSORS AND IS SUBJECT TO LICENSE TERMS.
# //  THIS DOCUMENT CONTAINS TRADE SECRETS AND COMMERCIAL OR FINANCIAL
# //  INFORMATION THAT ARE PRIVILEGED, CONFIDENTIAL, AND EXEMPT FROM
# //  DISCLOSURE UNDER THE FREEDOM OF INFORMATION ACT, 5 U.S.C. SECTION 552.
# //  FURTHERMORE, THIS INFORMATION IS PROHIBITED FROM DISCLOSURE UNDER
# //  THE TRADE SECRETS ACT, 18 U.S.C. SECTION 1905.
# //
# Loading sv_std.std
# Loading mtiUvm.uvm_pkg
# Loading work.sequences(fast)
# Loading work.scoreboard(fast)
# Loading work.coverage(fast)
# Loading work.modules_pkg(fast)
# Loading work.tests(fast)
# Loading work.tb_sv_unit(fast)
# Loading work.top(fast)
# Loading work.fpu(fast)
# Loading mtiUvm.questa_uvm_pkg(fast)
# Loading work.dut_in(fast)
# Loading work.dut_out(fast)
# Loading /misc/linuxws/packages/mentor_2015/modelsim/modeltech/uvm-1.1d/linux_x86_64/uvm_dpi.so
# ----------------------------------------------------------------
# UVM-1.1d
# (C) 2007-2013 Mentor Graphics Corporation
# (C) 2007-2013 Cadence Design Systems, Inc.
# (C) 2006-2013 Synopsys, Inc.
# (C) 2011-2013 Cypress Semiconductor Corp.
# ----------------------------------------------------------------
# 
#   ***********       IMPORTANT RELEASE NOTES         ************
# 
#   You are using a version of the UVM library that has been compiled
#   with `UVM_NO_DEPRECATED undefined.
#   See http://www.eda.org/svdb/view.php?id=3313 for more details.
# 
#   You are using a version of the UVM library that has been compiled
#   with `UVM_OBJECT_MUST_HAVE_CONSTRUCTOR undefined.
#   See http://www.eda.org/svdb/view.php?id=3770 for more details.
# 
#       (Specify +UVM_NO_RELNOTES to turn off this notice)
# 
# UVM_INFO verilog_src/questa_uvm_pkg-1.2/src/questa_uvm_pkg.sv(215) @ 0: reporter [Questa UVM] QUESTA_UVM-1.2.2
# UVM_INFO verilog_src/questa_uvm_pkg-1.2/src/questa_uvm_pkg.sv(217) @ 0: reporter [Questa UVM]  questa_uvm::init(+struct)
# UVM_INFO @ 0: reporter [RNTST] Running test test1...
# UVM_INFO ../tb/scoreboard.sv(491) @ 250: uvm_test_top.alu_env_h.alu_scoreboard_h [After rounding] frac_final: 5693c0, fraction_ans_un: 15a4f000
# UVM_INFO ../tb/scoreboard.sv(491) @ 350: uvm_test_top.alu_env_h.alu_scoreboard_h [After rounding] frac_final: 25b04d, fraction_ans_un: 096c1340
# UVM_INFO ../tb/scoreboard.sv(491) @ 450: uvm_test_top.alu_env_h.alu_scoreboard_h [After rounding] frac_final: 25f408, fraction_ans_un: 097d0200
# UVM_INFO ../tb/scoreboard.sv(491) @ 550: uvm_test_top.alu_env_h.alu_scoreboard_h [After rounding] frac_final: 5feda5, fraction_ans_un: 17fb694a
# UVM_INFO ../tb/scoreboard.sv(99) @ 550: uvm_test_top.alu_env_h.alu_scoreboard_h [ERROR MSG-9] OUT is wrong!!! DUT out: cf5693bf, SB out: eb5feda5, In A: eb5fedb2, In B: 614ddb94
# UVM_INFO ../tb/scoreboard.sv(491) @ 650: uvm_test_top.alu_env_h.alu_scoreboard_h [After rounding] frac_final: 169985, fraction_ans_un: 05a66140
# UVM_INFO ../tb/scoreboard.sv(99) @ 650: uvm_test_top.alu_env_h.alu_scoreboard_h [ERROR MSG-9] OUT is wrong!!! DUT out: c3a5b04c, SB out: a0169985, In A: 1cf7cb80, In B: a018891c
# UVM_INFO ../tb/scoreboard.sv(491) @ 750: uvm_test_top.alu_env_h.alu_scoreboard_h [After rounding] frac_final: 6f8b91, fraction_ans_un: 1be2e440
# UVM_INFO ../tb/scoreboard.sv(99) @ 750: uvm_test_top.alu_env_h.alu_scoreboard_h [ERROR MSG-9] OUT is wrong!!! DUT out: 72a5f407, SB out: 306f8b91, In A: 88f8ef77, In B: 306f8b91
# UVM_INFO ../tb/scoreboard.sv(491) @ 850: uvm_test_top.alu_env_h.alu_scoreboard_h [After rounding] frac_final: 3479e2, fraction_ans_un: 0d1e7880
# UVM_INFO ../tb/scoreboard.sv(99) @ 850: uvm_test_top.alu_env_h.alu_scoreboard_h [ERROR MSG-9] OUT is wrong!!! DUT out: eb5feda5, SB out: 7ab479e2, In A: 7ab479e2, In B: 156fa382
# UVM_INFO ../tb/scoreboard.sv(491) @ 950: uvm_test_top.alu_env_h.alu_scoreboard_h [After rounding] frac_final: 648fa7, fraction_ans_un: 1923e9f8
# UVM_INFO ../tb/scoreboard.sv(99) @ 950: uvm_test_top.alu_env_h.alu_scoreboard_h [ERROR MSG-9] OUT is wrong!!! DUT out: a0169985, SB out: d6648fa7, In A: cc0e7772, In B: d6648f9f
# UVM_INFO ../tb/scoreboard.sv(491) @ 1050: uvm_test_top.alu_env_h.alu_scoreboard_h [After rounding] frac_final: 58adf7, fraction_ans_un: 162b7dc0
# UVM_INFO ../tb/scoreboard.sv(99) @ 1050: uvm_test_top.alu_env_h.alu_scoreboard_h [ERROR MSG-9] OUT is wrong!!! DUT out: 306f8b90, SB out: cbd8adf7, In A: cbd8adf7, In B: 00923470
# UVM_INFO ../tb/scoreboard.sv(491) @ 1150: uvm_test_top.alu_env_h.alu_scoreboard_h [After rounding] frac_final: 5da22d, fraction_ans_un: 17688b40
# UVM_INFO ../tb/scoreboard.sv(99) @ 1150: uvm_test_top.alu_env_h.alu_scoreboard_h [ERROR MSG-9] OUT is wrong!!! DUT out: 7ab479e2, SB out: f3dda22d, In A: a9021ba5, In B: f3dda22d
# UVM_INFO ../tb/scoreboard.sv(491) @ 1250: uvm_test_top.alu_env_h.alu_scoreboard_h [After rounding] frac_final: 04d6cf, fraction_ans_un: 0135b3c0
# UVM_INFO ../tb/scoreboard.sv(99) @ 1250: uvm_test_top.alu_env_h.alu_scoreboard_h [ERROR MSG-9] OUT is wrong!!! DUT out: d6648fa7, SB out: c284d6cf, In A: c284d6cf, In B: 9b90d843
# UVM_INFO ../tb/scoreboard.sv(491) @ 1350: uvm_test_top.alu_env_h.alu_scoreboard_h [After rounding] frac_final: 2c423d, fraction_ans_un: 0b108f78
# UVM_INFO ../tb/scoreboard.sv(99) @ 1350: uvm_test_top.alu_env_h.alu_scoreboard_h [ERROR MSG-9] OUT is wrong!!! DUT out: cbd8adf6, SB out: 662c423d, In A: 60929712, In B: 662c2feb
# UVM_INFO ../tb/scoreboard.sv(491) @ 1450: uvm_test_top.alu_env_h.alu_scoreboard_h [After rounding] frac_final: 3417fc, fraction_ans_un: 0d05ff00
# UVM_INFO ../tb/scoreboard.sv(99) @ 1450: uvm_test_top.alu_env_h.alu_scoreboard_h [ERROR MSG-9] OUT is wrong!!! DUT out: f3dda22d, SB out: f0b417fc, In A: 39412ec1, In B: f0b417fc
# UVM_INFO ../tb/scoreboard.sv(491) @ 1550: uvm_test_top.alu_env_h.alu_scoreboard_h [After rounding] frac_final: 79cd5d, fraction_ans_un: 1e73575e
# UVM_INFO ../tb/scoreboard.sv(99) @ 1550: uvm_test_top.alu_env_h.alu_scoreboard_h [ERROR MSG-9] OUT is wrong!!! DUT out: c284d6cf, SB out: 3379cd5d, In A: 3379cca2, In B: 2b3b7da8
# UVM_INFO ../tb/scoreboard.sv(491) @ 1650: uvm_test_top.alu_env_h.alu_scoreboard_h [After rounding] frac_final: 77b7f0, fraction_ans_un: 1dedfc00
# UVM_INFO ../tb/scoreboard.sv(99) @ 1650: uvm_test_top.alu_env_h.alu_scoreboard_h [ERROR MSG-9] OUT is wrong!!! DUT out: 662c423d, SB out: e877b7f0, In A: 89cf21df, In B: e877b7f0
# UVM_INFO ../tb/scoreboard.sv(491) @ 1750: uvm_test_top.alu_env_h.alu_scoreboard_h [After rounding] frac_final: 71faf2, fraction_ans_un: 1c7ebc80
# UVM_INFO ../tb/scoreboard.sv(99) @ 1750: uvm_test_top.alu_env_h.alu_scoreboard_h [ERROR MSG-9] OUT is wrong!!! DUT out: f0b417fb, SB out: 6df1faf2, In A: d718512b, In B: 6df1faf2
# UVM_INFO ../tb/scoreboard.sv(491) @ 1850: uvm_test_top.alu_env_h.alu_scoreboard_h [After rounding] frac_final: 35fd67, fraction_ans_un: 0d7f59dc
# UVM_INFO ../tb/scoreboard.sv(99) @ 1850: uvm_test_top.alu_env_h.alu_scoreboard_h [ERROR MSG-9] OUT is wrong!!! DUT out: 3379cd5d, SB out: 64b5fd67, In A: 5b23a770, In B: 64b5fd53
# UVM_INFO ../tb/scoreboard.sv(491) @ 1950: uvm_test_top.alu_env_h.alu_scoreboard_h [After rounding] frac_final: 05120f, fraction_ans_un: 014483ec
# UVM_INFO ../tb/scoreboard.sv(99) @ 1950: uvm_test_top.alu_env_h.alu_scoreboard_h [ERROR MSG-9] OUT is wrong!!! DUT out: e877b7f0, SB out: 2085120f, In A: 942b7884, In B: 20851210
# UVM_INFO ../tb/scoreboard.sv(491) @ 2050: uvm_test_top.alu_env_h.alu_scoreboard_h [After rounding] frac_final: 2e3aee, fraction_ans_un: 0b8ebb90
# UVM_INFO ../tb/scoreboard.sv(99) @ 2050: uvm_test_top.alu_env_h.alu_scoreboard_h [ERROR MSG-9] OUT is wrong!!! DUT out: 6df1faf1, SB out: aeae3aee, In A: aeae3ac0, In B: a5b91929
# UVM_INFO ../tb/scoreboard.sv(491) @ 2150: uvm_test_top.alu_env_h.alu_scoreboard_h [After rounding] frac_final: 3ce472, fraction_ans_un: 0f391c80
# UVM_INFO ../tb/scoreboard.sv(99) @ 2150: uvm_test_top.alu_env_h.alu_scoreboard_h [ERROR MSG-9] OUT is wrong!!! DUT out: 64b5fd67, SB out: 713ce472, In A: d53efd30, In B: 713ce472
# UVM_INFO ../tb/scoreboard.sv(491) @ 2250: uvm_test_top.alu_env_h.alu_scoreboard_h [After rounding] frac_final: 08d8a1, fraction_ans_un: 02362840
# UVM_INFO ../tb/scoreboard.sv(99) @ 2250: uvm_test_top.alu_env_h.alu_scoreboard_h [ERROR MSG-9] OUT is wrong!!! DUT out: 2085120f, SB out: ce08d8a1, In A: b7c003e3, In B: ce08d8a1
# UVM_INFO ../tb/scoreboard.sv(491) @ 2350: uvm_test_top.alu_env_h.alu_scoreboard_h [After rounding] frac_final: 5eac83, fraction_ans_un: 17ab20c0
# UVM_INFO ../tb/scoreboard.sv(99) @ 2350: uvm_test_top.alu_env_h.alu_scoreboard_h [ERROR MSG-9] OUT is wrong!!! DUT out: aeae3aee, SB out: 655eac83, In A: 655eac83, In B: 1b5ad5e5
# UVM_INFO ../tb/scoreboard.sv(491) @ 2450: uvm_test_top.alu_env_h.alu_scoreboard_h [After rounding] frac_final: 65ff56, fraction_ans_un: 197fd580
# UVM_INFO ../tb/scoreboard.sv(99) @ 2450: uvm_test_top.alu_env_h.alu_scoreboard_h [ERROR MSG-9] OUT is wrong!!! DUT out: 713ce471, SB out: 5e65ff56, In A: 12a61d74, In B: 5e65ff56
# UVM_INFO ../tb/scoreboard.sv(491) @ 2550: uvm_test_top.alu_env_h.alu_scoreboard_h [After rounding] frac_final: 298744, fraction_ans_un: 0a61d110
# UVM_INFO ../tb/scoreboard.sv(99) @ 2550: uvm_test_top.alu_env_h.alu_scoreboard_h [ERROR MSG-9] OUT is wrong!!! DUT out: ce08d8a1, SB out: 6fa98744, In A: 6fbf9bb4, In B: ee30a37e
# UVM_INFO ../tb/scoreboard.sv(491) @ 2650: uvm_test_top.alu_env_h.alu_scoreboard_h [After rounding] frac_final: 6989f4, fraction_ans_un: 1a627d28
# UVM_INFO ../tb/scoreboard.sv(99) @ 2650: uvm_test_top.alu_env_h.alu_scoreboard_h [ERROR MSG-9] OUT is wrong!!! DUT out: 655eac83, SB out: a2e989f4, In A: a2e98a14, In B: 197b308c
# UVM_INFO ../tb/scoreboard.sv(491) @ 2750: uvm_test_top.alu_env_h.alu_scoreboard_h [After rounding] frac_final: 721dbe, fraction_ans_un: 1c876fa0
# UVM_INFO ../tb/scoreboard.sv(99) @ 2750: uvm_test_top.alu_env_h.alu_scoreboard_h [ERROR MSG-9] OUT is wrong!!! DUT out: 5e65ff56, SB out: 94f21dbe, In A: 94f21d73, In B: 8c170389
# UVM_INFO ../tb/scoreboard.sv(491) @ 2850: uvm_test_top.alu_env_h.alu_scoreboard_h [After rounding] frac_final: 7501c0, fraction_ans_un: 1d407000
# UVM_INFO ../tb/scoreboard.sv(99) @ 2850: uvm_test_top.alu_env_h.alu_scoreboard_h [ERROR MSG-9] OUT is wrong!!! DUT out: 6fa98744, SB out: dd7501c0, In A: a3458144, In B: dd7501c0
# UVM_INFO ../tb/scoreboard.sv(491) @ 2950: uvm_test_top.alu_env_h.alu_scoreboard_h [After rounding] frac_final: 515aa8, fraction_ans_un: 1456aa00
# UVM_INFO ../tb/scoreboard.sv(99) @ 2950: uvm_test_top.alu_env_h.alu_scoreboard_h [ERROR MSG-9] OUT is wrong!!! DUT out: a2e989f4, SB out: b2d15aa8, In A: 110e33c3, In B: b2d15aa8
# UVM_INFO ../tb/scoreboard.sv(491) @ 3050: uvm_test_top.alu_env_h.alu_scoreboard_h [After rounding] frac_final: 212e23, fraction_ans_un: 084b88c0
# UVM_INFO ../tb/scoreboard.sv(99) @ 3050: uvm_test_top.alu_env_h.alu_scoreboard_h [ERROR MSG-9] OUT is wrong!!! DUT out: 94f21dbe, SB out: 98212e23, In A: 03c5c1a2, In B: 98212e23
# UVM_INFO ../tb/scoreboard.sv(491) @ 3150: uvm_test_top.alu_env_h.alu_scoreboard_h [After rounding] frac_final: 50ee2d, fraction_ans_un: 143b8b40
# UVM_INFO ../tb/scoreboard.sv(99) @ 3150: uvm_test_top.alu_env_h.alu_scoreboard_h [ERROR MSG-9] OUT is wrong!!! DUT out: dd7501c0, SB out: 6dd0ee2d, In A: 6dd0ee2d, In B: dc4de2e9
# UVM_INFO ../tb/scoreboard.sv(491) @ 3250: uvm_test_top.alu_env_h.alu_scoreboard_h [After rounding] frac_final: 18c7ff, fraction_ans_un: 0631fffa
# UVM_INFO ../tb/scoreboard.sv(99) @ 3250: uvm_test_top.alu_env_h.alu_scoreboard_h [ERROR MSG-9] OUT is wrong!!! DUT out: b2d15aa7, SB out: dd18c7ff, In A: 4fdec827, In B: dd18c800
# UVM_INFO ../tb/scoreboard.sv(491) @ 3350: uvm_test_top.alu_env_h.alu_scoreboard_h [After rounding] frac_final: 719794, fraction_ans_un: 1c65e500
# UVM_INFO ../tb/scoreboard.sv(99) @ 3350: uvm_test_top.alu_env_h.alu_scoreboard_h [ERROR MSG-9] OUT is wrong!!! DUT out: 98212e22, SB out: fd719794, In A: 51ab300c, In B: fd719794
# UVM_INFO ../tb/scoreboard.sv(491) @ 3450: uvm_test_top.alu_env_h.alu_scoreboard_h [After rounding] frac_final: 01813c, fraction_ans_un: 00604f00
# UVM_INFO ../tb/scoreboard.sv(99) @ 3450: uvm_test_top.alu_env_h.alu_scoreboard_h [ERROR MSG-9] OUT is wrong!!! DUT out: 6dd0ee2c, SB out: f901813c, In A: 35d2fc41, In B: f901813c
# UVM_INFO ../tb/scoreboard.sv(491) @ 3550: uvm_test_top.alu_env_h.alu_scoreboard_h [After rounding] frac_final: 72204a, fraction_ans_un: 1c881280
# UVM_INFO ../tb/scoreboard.sv(99) @ 3550: uvm_test_top.alu_env_h.alu_scoreboard_h [ERROR MSG-9] OUT is wrong!!! DUT out: dd18c7ff, SB out: 75f2204a, In A: 755c0a64, In B: 75841b18
# UVM_INFO ../tb/scoreboard.sv(491) @ 3650: uvm_test_top.alu_env_h.alu_scoreboard_h [After rounding] frac_final: 021dcd, fraction_ans_un: 00877340
# UVM_INFO ../tb/scoreboard.sv(99) @ 3650: uvm_test_top.alu_env_h.alu_scoreboard_h [ERROR MSG-9] OUT is wrong!!! DUT out: fd719793, SB out: 4f021dcd, In A: 82b7757c, In B: 4f021dcd
# UVM_INFO ../tb/scoreboard.sv(491) @ 3750: uvm_test_top.alu_env_h.alu_scoreboard_h [After rounding] frac_final: 191242, fraction_ans_un: 06449080
# UVM_INFO ../tb/scoreboard.sv(99) @ 3750: uvm_test_top.alu_env_h.alu_scoreboard_h [ERROR MSG-9] OUT is wrong!!! DUT out: f901813b, SB out: 63991242, In A: 63991242, In B: 40d6ea4b
# UVM_INFO ../tb/scoreboard.sv(491) @ 3850: uvm_test_top.alu_env_h.alu_scoreboard_h [After rounding] frac_final: 765d00, fraction_ans_un: 1d974000
# UVM_INFO ../tb/scoreboard.sv(99) @ 3850: uvm_test_top.alu_env_h.alu_scoreboard_h [ERROR MSG-9] OUT is wrong!!! DUT out: 75f2204a, SB out: b0765d00, In A: b0765d00, In B: 9b6c984a
# UVM_INFO ../tb/scoreboard.sv(491) @ 3950: uvm_test_top.alu_env_h.alu_scoreboard_h [After rounding] frac_final: 005d46, fraction_ans_un: 00175180
# UVM_INFO ../tb/scoreboard.sv(99) @ 3950: uvm_test_top.alu_env_h.alu_scoreboard_h [ERROR MSG-9] OUT is wrong!!! DUT out: 4f021dcc, SB out: e2805d46, In A: e2805d46, In B: 9be9ea06
# UVM_INFO ../tb/scoreboard.sv(491) @ 4050: uvm_test_top.alu_env_h.alu_scoreboard_h [After rounding] frac_final: 19d923, fraction_ans_un: 067648c0
# UVM_INFO ../tb/scoreboard.sv(99) @ 4050: uvm_test_top.alu_env_h.alu_scoreboard_h [ERROR MSG-9] OUT is wrong!!! DUT out: 63991242, SB out: da19d923, In A: da19d923, In B: cab3a5d7
# UVM_INFO ../tb/scoreboard.sv(491) @ 4150: uvm_test_top.alu_env_h.alu_scoreboard_h [After rounding] frac_final: 4b703d, fraction_ans_un: 12dc0f40
# UVM_INFO ../tb/scoreboard.sv(99) @ 4150: uvm_test_top.alu_env_h.alu_scoreboard_h [ERROR MSG-9] OUT is wrong!!! DUT out: b0765d00, SB out: 2e4b703d, In A: 2e4b703d, In B: 9f43d9e1
# UVM_INFO ../tb/scoreboard.sv(491) @ 4250: uvm_test_top.alu_env_h.alu_scoreboard_h [After rounding] frac_final: 7c82bc, fraction_ans_un: 1f20af00
# UVM_INFO ../tb/scoreboard.sv(99) @ 4250: uvm_test_top.alu_env_h.alu_scoreboard_h [ERROR MSG-9] OUT is wrong!!! DUT out: e2805d46, SB out: b07c82bc, In A: 903b14c0, In B: b07c82bc
# UVM_INFO ../tb/scoreboard.sv(491) @ 4350: uvm_test_top.alu_env_h.alu_scoreboard_h [After rounding] frac_final: 69284b, fraction_ans_un: 1a4a12c0
# UVM_INFO ../tb/scoreboard.sv(99) @ 4350: uvm_test_top.alu_env_h.alu_scoreboard_h [ERROR MSG-9] OUT is wrong!!! DUT out: da19d923, SB out: e8e9284b, In A: e8e9284b, In B: a273d6e4
# UVM_INFO ../tb/scoreboard.sv(491) @ 4450: uvm_test_top.alu_env_h.alu_scoreboard_h [After rounding] frac_final: 109df4, fraction_ans_un: 04277d00
# UVM_INFO ../tb/scoreboard.sv(99) @ 4450: uvm_test_top.alu_env_h.alu_scoreboard_h [ERROR MSG-9] OUT is wrong!!! DUT out: 2e4b703c, SB out: 74909df4, In A: 37b0b104, In B: 74909df4
# UVM_INFO ../tb/scoreboard.sv(491) @ 4550: uvm_test_top.alu_env_h.alu_scoreboard_h [After rounding] frac_final: 18e199, fraction_ans_un: 06386678
# UVM_INFO ../tb/scoreboard.sv(99) @ 4550: uvm_test_top.alu_env_h.alu_scoreboard_h [ERROR MSG-9] OUT is wrong!!! DUT out: b07c82bc, SB out: 1f18e199, In A: 1f1a2205, In B: 9ba03590
# UVM_INFO ../tb/scoreboard.sv(491) @ 4650: uvm_test_top.alu_env_h.alu_scoreboard_h [After rounding] frac_final: 03ccbf, fraction_ans_un: 00f32fc0
# UVM_INFO ../tb/scoreboard.sv(99) @ 4650: uvm_test_top.alu_env_h.alu_scoreboard_h [ERROR MSG-9] OUT is wrong!!! DUT out: e8e9284b, SB out: 9f03ccbf, In A: 9f03ccbf, In B: 0d37d58f
# UVM_INFO ../tb/scoreboard.sv(491) @ 4750: uvm_test_top.alu_env_h.alu_scoreboard_h [After rounding] frac_final: 36a3c7, fraction_ans_un: 0da8f1c0
# UVM_INFO ../tb/scoreboard.sv(99) @ 4750: uvm_test_top.alu_env_h.alu_scoreboard_h [ERROR MSG-9] OUT is wrong!!! DUT out: 74909df4, SB out: d5b6a3c7, In A: d5b6a3c7, In B: c554ad99
# UVM_INFO ../tb/scoreboard.sv(491) @ 4850: uvm_test_top.alu_env_h.alu_scoreboard_h [After rounding] frac_final: 11101a, fraction_ans_un: 04440680
# UVM_INFO ../tb/scoreboard.sv(99) @ 4850: uvm_test_top.alu_env_h.alu_scoreboard_h [ERROR MSG-9] OUT is wrong!!! DUT out: 1f18e199, SB out: 6611101a, In A: 6611101a, In B: cc498f89
# UVM_INFO ../tb/scoreboard.sv(491) @ 4950: uvm_test_top.alu_env_h.alu_scoreboard_h [After rounding] frac_final: 5d807f, fraction_ans_un: 17601ff2
# UVM_INFO ../tb/scoreboard.sv(99) @ 4950: uvm_test_top.alu_env_h.alu_scoreboard_h [ERROR MSG-9] OUT is wrong!!! DUT out: 9f03ccbe, SB out: 19dd807f, In A: 19da305d, In B: 16d408b2
# UVM_INFO ../tb/scoreboard.sv(491) @ 5050: uvm_test_top.alu_env_h.alu_scoreboard_h [After rounding] frac_final: 3c5636, fraction_ans_un: 0f158d88
# UVM_INFO ../tb/scoreboard.sv(99) @ 5050: uvm_test_top.alu_env_h.alu_scoreboard_h [ERROR MSG-9] OUT is wrong!!! DUT out: d5b6a3c7, SB out: 96bc5636, In A: 96bc5639, In B: 0bb9f8aa
# UVM_INFO ../tb/scoreboard.sv(491) @ 5150: uvm_test_top.alu_env_h.alu_scoreboard_h [After rounding] frac_final: 7e36d7, fraction_ans_un: 1f8db5c0
# UVM_INFO ../tb/scoreboard.sv(99) @ 5150: uvm_test_top.alu_env_h.alu_scoreboard_h [ERROR MSG-9] OUT is wrong!!! DUT out: 66111019, SB out: 537e36d7, In A: 12ca0182, In B: 537e36d7
# UVM_INFO ../tb/scoreboard.sv(491) @ 5250: uvm_test_top.alu_env_h.alu_scoreboard_h [After rounding] frac_final: 5e54df, fraction_ans_un: 179537c0
# UVM_INFO ../tb/scoreboard.sv(99) @ 5250: uvm_test_top.alu_env_h.alu_scoreboard_h [ERROR MSG-9] OUT is wrong!!! DUT out: 19dd807f, SB out: 795e54df, In A: 795e54df, In B: a88a7e18
# UVM_INFO ../tb/scoreboard.sv(491) @ 5350: uvm_test_top.alu_env_h.alu_scoreboard_h [After rounding] frac_final: 0ddebd, fraction_ans_un: 0377af40
# UVM_INFO ../tb/scoreboard.sv(99) @ 5350: uvm_test_top.alu_env_h.alu_scoreboard_h [ERROR MSG-9] OUT is wrong!!! DUT out: 96bc5636, SB out: fc0ddebd, In A: fc0ddebd, In B: 98bfc2ac
# UVM_INFO ../tb/scoreboard.sv(491) @ 5450: uvm_test_top.alu_env_h.alu_scoreboard_h [After rounding] frac_final: 106241, fraction_ans_un: 04189060
# UVM_INFO ../tb/scoreboard.sv(99) @ 5450: uvm_test_top.alu_env_h.alu_scoreboard_h [ERROR MSG-9] OUT is wrong!!! DUT out: 537e36d7, SB out: f5906241, In A: 74973bd2, In B: f5b63136
# UVM_INFO ../tb/scoreboard.sv(491) @ 5550: uvm_test_top.alu_env_h.alu_scoreboard_h [After rounding] frac_final: 0a8455, fraction_ans_un: 02a11540
# UVM_INFO ../tb/scoreboard.sv(99) @ 5550: uvm_test_top.alu_env_h.alu_scoreboard_h [ERROR MSG-9] OUT is wrong!!! DUT out: 795e54de, SB out: 780a8455, In A: 780a8455, In B: 4911b5fe
# UVM_INFO ../tb/scoreboard.sv(491) @ 5650: uvm_test_top.alu_env_h.alu_scoreboard_h [After rounding] frac_final: 54e928, fraction_ans_un: 153a4a00
# UVM_INFO ../tb/scoreboard.sv(99) @ 5650: uvm_test_top.alu_env_h.alu_scoreboard_h [ERROR MSG-9] OUT is wrong!!! DUT out: fc0ddebd, SB out: 3754e928, In A: 8dd9ab23, In B: 3754e928
# UVM_INFO ../tb/scoreboard.sv(491) @ 5750: uvm_test_top.alu_env_h.alu_scoreboard_h [After rounding] frac_final: 49955d, fraction_ans_un: 1265574c
# UVM_INFO ../tb/scoreboard.sv(99) @ 5750: uvm_test_top.alu_env_h.alu_scoreboard_h [ERROR MSG-9] OUT is wrong!!! DUT out: f5906241, SB out: d1c9955d, In A: 4fb5766d, In B: d1d4ecc4
