fpu/trunk/sim/transcript
# do run.do
# ** Warning: (vdel-134) Unable to remove locked optimized design "_opt".  Locker is tchouhan@wario.
# ** Warning: (vdel-134) Unable to remove locked optimized design "_opt1".  Locker is tchouhan@wario.
# ** Warning: (vdel-134) Unable to remove locked optimized design "_opt2".  Locker is tchouhan@wario.
# ** Warning: (vdel-134) Unable to remove locked optimized design "_opt3".  Locker is tchouhan@wario.
# ** Warning: (vdel-134) Unable to remove locked optimized design "_opt4".  Locker is tchouhan@wario.
# ** Warning: (vdel-134) Unable to remove locked optimized design "_opt5".  Locker is tchouhan@wario.
# ** Warning: (vdel-134) Unable to remove locked optimized design "_opt6".  Locker is tchouhan@wario.
# ** Warning: (vlib-34) Library already exists at "work".
# Model Technology ModelSim SE-64 vlog 10.4b Compiler 2015.05 May 26 2015
# Start time: 03:53:25 on Apr 18,2017
# vlog ../lib/gscl45nm.v 
# -- Compiling module AND2X1
# -- Compiling module AND2X2
# -- Compiling module AOI21X1
# -- Compiling module AOI22X1
# -- Compiling module BUFX2
# -- Compiling module BUFX4
# -- Compiling module CLKBUF1
# -- Compiling module CLKBUF2
# -- Compiling module CLKBUF3
# -- Compiling module DFFNEGX1
# -- Compiling module DFFPOSX1
# -- Compiling module DFFSR
# -- Compiling module FAX1
# -- Compiling module HAX1
# -- Compiling module INVX1
# -- Compiling module INVX2
# -- Compiling module INVX4
# -- Compiling module INVX8
# -- Compiling module LATCH
# -- Compiling module MUX2X1
# -- Compiling module NAND2X1
# -- Compiling module NAND3X1
# -- Compiling module NOR2X1
# -- Compiling module NOR3X1
# -- Compiling module OAI21X1
# -- Compiling module OAI22X1
# -- Compiling module OR2X1
# -- Compiling module OR2X2
# -- Compiling module TBUFX1
# -- Compiling module TBUFX2
# -- Compiling module XNOR2X1
# -- Compiling module XOR2X1
# -- Compiling UDP udp_dff
# -- Compiling UDP udp_tlat
# -- Compiling UDP udp_rslat
# -- Compiling UDP udp_mux2
# 
# Top level modules:
# 	AND2X1
# 	AND2X2
# 	AOI21X1
# 	AOI22X1
# 	BUFX2
# 	BUFX4
# 	CLKBUF1
# 	CLKBUF2
# 	CLKBUF3
# 	DFFNEGX1
# 	DFFPOSX1
# 	DFFSR
# 	FAX1
# 	HAX1
# 	INVX1
# 	INVX2
# 	INVX4
# 	INVX8
# 	LATCH
# 	MUX2X1
# 	NAND2X1
# 	NAND3X1
# 	NOR2X1
# 	NOR3X1
# 	OAI21X1
# 	OAI22X1
# 	OR2X1
# 	OR2X2
# 	TBUFX1
# 	TBUFX2
# 	XNOR2X1
# 	XOR2X1
# End time: 03:53:25 on Apr 18,2017, Elapsed time: 0:00:00
# Errors: 0, Warnings: 0
# Model Technology ModelSim SE-64 vlog 10.4b Compiler 2015.05 May 26 2015
# Start time: 03:53:25 on Apr 18,2017
# vlog ../verilog/fpu.v ../verilog/pre_norm.v ../verilog/primitives.v ../verilog/post_norm.v ../verilog/except.v ../verilog/pre_norm_fmul.v 
# -- Compiling module fpu
# -- Compiling module pre_norm
# -- Compiling module add_sub27
# -- Compiling module mul_r2
# -- Compiling module div_r2
# -- Compiling module post_norm
# -- Compiling module except
# -- Compiling module pre_norm_fmul
# 
# Top level modules:
# 	fpu
# End time: 03:53:25 on Apr 18,2017, Elapsed time: 0:00:00
# Errors: 0, Warnings: 0
# Model Technology ModelSim SE-64 vlog 10.4b Compiler 2015.05 May 26 2015
# Start time: 03:53:25 on Apr 18,2017
# vlog "+cover" -sv ../tb/interfaces.sv ../tb/sequences.sv ../tb/coverage.sv ../tb/scoreboard.sv ../tb/modules.sv ../tb/tests.sv ../tb/tb.sv 
# -- Compiling interface dut_in
# -- Compiling interface dut_out
# ** Note: (vlog-2286) Using implicit +incdir+/misc/linuxws/packages/mentor_2015/modelsim/modeltech/uvm-1.1d/../verilog_src/uvm-1.1d/src from import uvm_pkg
# -- Compiling package sequences
# -- Importing package mtiUvm.uvm_pkg (uvm-1.1d Built-in)
# -- Compiling package coverage
# -- Importing package sequences
# -- Compiling package scoreboard
# -- Compiling package modules_pkg
# -- Importing package coverage
# -- Importing package scoreboard
# -- Compiling package tests
# -- Importing package modules_pkg
# -- Compiling package tb_sv_unit
# -- Importing package mtiUvm.uvm_pkg (uvm-1.1d Built-in)
# -- Importing package modules_pkg
# -- Importing package sequences
# -- Importing package coverage
# -- Importing package scoreboard
# -- Importing package tests
# -- Compiling module dut
# -- Compiling module top
# 
# Top level modules:
# 	top
# End time: 03:53:26 on Apr 18,2017, Elapsed time: 0:00:01
# Errors: 0, Warnings: 0
# vsim -c top 
# Start time: 03:53:26 on Apr 18,2017
# ** Note: (vsim-3812) Design is being optimized...
# //  ModelSim SE-64 10.4b May 26 2015 Linux 2.6.32-642.11.1.el6.x86_64
# //
# //  Copyright 1991-2015 Mentor Graphics Corporation
# //  All Rights Reserved.
# //
# //  THIS WORK CONTAINS TRADE SECRET AND PROPRIETARY INFORMATION
# //  WHICH IS THE PROPERTY OF MENTOR GRAPHICS CORPORATION OR ITS
# //  LICENSORS AND IS SUBJECT TO LICENSE TERMS.
# //  THIS DOCUMENT CONTAINS TRADE SECRETS AND COMMERCIAL OR FINANCIAL
# //  INFORMATION THAT ARE PRIVILEGED, CONFIDENTIAL, AND EXEMPT FROM
# //  DISCLOSURE UNDER THE FREEDOM OF INFORMATION ACT, 5 U.S.C. SECTION 552.
# //  FURTHERMORE, THIS INFORMATION IS PROHIBITED FROM DISCLOSURE UNDER
# //  THE TRADE SECRETS ACT, 18 U.S.C. SECTION 1905.
# //
# Loading sv_std.std
# Loading mtiUvm.uvm_pkg
# Loading work.sequences(fast)
# Loading work.scoreboard(fast)
# Loading work.coverage(fast)
# Loading work.modules_pkg(fast)
# Loading work.tests(fast)
# Loading work.tb_sv_unit(fast)
# Loading work.top(fast)
# Loading work.fpu(fast)
# Loading mtiUvm.questa_uvm_pkg(fast)
# Loading work.dut_in(fast)
# Loading work.dut_out(fast)
# Loading /misc/linuxws/packages/mentor_2015/modelsim/modeltech/uvm-1.1d/linux_x86_64/uvm_dpi.so
# ----------------------------------------------------------------
# UVM-1.1d
# (C) 2007-2013 Mentor Graphics Corporation
# (C) 2007-2013 Cadence Design Systems, Inc.
# (C) 2006-2013 Synopsys, Inc.
# (C) 2011-2013 Cypress Semiconductor Corp.
# ----------------------------------------------------------------
# 
#   ***********       IMPORTANT RELEASE NOTES         ************
# 
#   You are using a version of the UVM library that has been compiled
#   with `UVM_NO_DEPRECATED undefined.
#   See http://www.eda.org/svdb/view.php?id=3313 for more details.
# 
#   You are using a version of the UVM library that has been compiled
#   with `UVM_OBJECT_MUST_HAVE_CONSTRUCTOR undefined.
#   See http://www.eda.org/svdb/view.php?id=3770 for more details.
# 
#       (Specify +UVM_NO_RELNOTES to turn off this notice)
# 
# UVM_INFO verilog_src/questa_uvm_pkg-1.2/src/questa_uvm_pkg.sv(215) @ 0: reporter [Questa UVM] QUESTA_UVM-1.2.2
# UVM_INFO verilog_src/questa_uvm_pkg-1.2/src/questa_uvm_pkg.sv(217) @ 0: reporter [Questa UVM]  questa_uvm::init(+struct)
# UVM_INFO @ 0: reporter [RNTST] Running test test1...
# UVM_INFO ../tb/scoreboard.sv(99) @ 550: uvm_test_top.alu_env_h.alu_scoreboard_h [ERROR MSG-9] OUT is wrong!!! DUT out: 0000002d, SB out: 8000002d, In A: c2340000, In B: 614ddb94
# UVM_INFO ../tb/scoreboard.sv(99) @ 650: uvm_test_top.alu_env_h.alu_scoreboard_h [ERROR MSG-9] OUT is wrong!!! DUT out: 0000002d, SB out: 8000002d, In A: c2340000, In B: a018891c
# UVM_INFO ../tb/scoreboard.sv(99) @ 750: uvm_test_top.alu_env_h.alu_scoreboard_h [ERROR MSG-9] OUT is wrong!!! DUT out: ffffffd3, SB out: 8000002d, In A: c2340000, In B: 306f8b91
# UVM_INFO ../tb/scoreboard.sv(99) @ 850: uvm_test_top.alu_env_h.alu_scoreboard_h [ERROR MSG-9] OUT is wrong!!! DUT out: ffffffd3, SB out: 8000002d, In A: c2340000, In B: 156fa382
# UVM_INFO ../tb/scoreboard.sv(99) @ 950: uvm_test_top.alu_env_h.alu_scoreboard_h [ERROR MSG-9] OUT is wrong!!! DUT out: ffffffd3, SB out: 8000002d, In A: c2340000, In B: d6648f9f
# UVM_INFO ../tb/scoreboard.sv(99) @ 1050: uvm_test_top.alu_env_h.alu_scoreboard_h [ERROR MSG-9] OUT is wrong!!! DUT out: ffffffd3, SB out: 8000002d, In A: c2340000, In B: 00923470
# UVM_INFO ../tb/scoreboard.sv(99) @ 1150: uvm_test_top.alu_env_h.alu_scoreboard_h [ERROR MSG-9] OUT is wrong!!! DUT out: ffffffd3, SB out: 8000002d, In A: c2340000, In B: f3dda22d
# UVM_INFO ../tb/scoreboard.sv(99) @ 1250: uvm_test_top.alu_env_h.alu_scoreboard_h [ERROR MSG-9] OUT is wrong!!! DUT out: 0000002d, SB out: 8000002d, In A: c2340000, In B: 9b90d843
# UVM_INFO ../tb/scoreboard.sv(99) @ 1350: uvm_test_top.alu_env_h.alu_scoreboard_h [ERROR MSG-9] OUT is wrong!!! DUT out: ffffffd3, SB out: 8000002d, In A: c2340000, In B: 662c2feb
# UVM_INFO ../tb/scoreboard.sv(99) @ 1450: uvm_test_top.alu_env_h.alu_scoreboard_h [ERROR MSG-9] OUT is wrong!!! DUT out: 0000002d, SB out: 8000002d, In A: c2340000, In B: f0b417fc
# UVM_INFO ../tb/scoreboard.sv(99) @ 1550: uvm_test_top.alu_env_h.alu_scoreboard_h [ERROR MSG-9] OUT is wrong!!! DUT out: ffffffd3, SB out: 8000002d, In A: c2340000, In B: 2b3b7da8
# UVM_INFO ../tb/scoreboard.sv(99) @ 1650: uvm_test_top.alu_env_h.alu_scoreboard_h [ERROR MSG-9] OUT is wrong!!! DUT out: ffffffd3, SB out: 8000002d, In A: c2340000, In B: e877b7f0
# UVM_INFO ../tb/scoreboard.sv(99) @ 1750: uvm_test_top.alu_env_h.alu_scoreboard_h [ERROR MSG-9] OUT is wrong!!! DUT out: 0000002d, SB out: 8000002d, In A: c2340000, In B: 6df1faf2
# UVM_INFO ../tb/scoreboard.sv(99) @ 1850: uvm_test_top.alu_env_h.alu_scoreboard_h [ERROR MSG-9] OUT is wrong!!! DUT out: ffffffd3, SB out: 8000002d, In A: c2340000, In B: 64b5fd53
# UVM_INFO ../tb/scoreboard.sv(99) @ 1950: uvm_test_top.alu_env_h.alu_scoreboard_h [ERROR MSG-9] OUT is wrong!!! DUT out: 0000002d, SB out: 8000002d, In A: c2340000, In B: 20851210
# UVM_INFO ../tb/scoreboard.sv(99) @ 2050: uvm_test_top.alu_env_h.alu_scoreboard_h [ERROR MSG-9] OUT is wrong!!! DUT out: ffffffd3, SB out: 8000002d, In A: c2340000, In B: a5b91929
# UVM_INFO ../tb/scoreboard.sv(99) @ 2150: uvm_test_top.alu_env_h.alu_scoreboard_h [ERROR MSG-9] OUT is wrong!!! DUT out: ffffffd3, SB out: 8000002d, In A: c2340000, In B: 713ce472
# UVM_INFO ../tb/scoreboard.sv(99) @ 2250: uvm_test_top.alu_env_h.alu_scoreboard_h [ERROR MSG-9] OUT is wrong!!! DUT out: ffffffd3, SB out: 8000002d, In A: c2340000, In B: ce08d8a1
# UVM_INFO ../tb/scoreboard.sv(99) @ 2350: uvm_test_top.alu_env_h.alu_scoreboard_h [ERROR MSG-9] OUT is wrong!!! DUT out: ffffffd3, SB out: 8000002d, In A: c2340000, In B: 1b5ad5e5
# UVM_INFO ../tb/scoreboard.sv(99) @ 2450: uvm_test_top.alu_env_h.alu_scoreboard_h [ERROR MSG-9] OUT is wrong!!! DUT out: ffffffd3, SB out: 8000002d, In A: c2340000, In B: 5e65ff56
# UVM_INFO ../tb/scoreboard.sv(99) @ 2550: uvm_test_top.alu_env_h.alu_scoreboard_h [ERROR MSG-9] OUT is wrong!!! DUT out: 0000002d, SB out: 8000002d, In A: c2340000, In B: ee30a37e
# UVM_INFO ../tb/scoreboard.sv(99) @ 2650: uvm_test_top.alu_env_h.alu_scoreboard_h [ERROR MSG-9] OUT is wrong!!! DUT out: ffffffd3, SB out: 8000002d, In A: c2340000, In B: 197b308c
# UVM_INFO ../tb/scoreboard.sv(99) @ 2750: uvm_test_top.alu_env_h.alu_scoreboard_h [ERROR MSG-9] OUT is wrong!!! DUT out: ffffffd3, SB out: 8000002d, In A: c2340000, In B: 8c170389
# UVM_INFO ../tb/scoreboard.sv(99) @ 2850: uvm_test_top.alu_env_h.alu_scoreboard_h [ERROR MSG-9] OUT is wrong!!! DUT out: 0000002d, SB out: 8000002d, In A: c2340000, In B: dd7501c0
# UVM_INFO ../tb/scoreboard.sv(99) @ 2950: uvm_test_top.alu_env_h.alu_scoreboard_h [ERROR MSG-9] OUT is wrong!!! DUT out: ffffffd3, SB out: 8000002d, In A: c2340000, In B: b2d15aa8
# UVM_INFO ../tb/scoreboard.sv(99) @ 3050: uvm_test_top.alu_env_h.alu_scoreboard_h [ERROR MSG-9] OUT is wrong!!! DUT out: ffffffd3, SB out: 8000002d, In A: c2340000, In B: 98212e23
# UVM_INFO ../tb/scoreboard.sv(99) @ 3150: uvm_test_top.alu_env_h.alu_scoreboard_h [ERROR MSG-9] OUT is wrong!!! DUT out: 0000002d, SB out: 8000002d, In A: c2340000, In B: dc4de2e9
# UVM_INFO ../tb/scoreboard.sv(99) @ 3250: uvm_test_top.alu_env_h.alu_scoreboard_h [ERROR MSG-9] OUT is wrong!!! DUT out: ffffffd3, SB out: 8000002d, In A: c2340000, In B: dd18c800
# UVM_INFO ../tb/scoreboard.sv(99) @ 3350: uvm_test_top.alu_env_h.alu_scoreboard_h [ERROR MSG-9] OUT is wrong!!! DUT out: ffffffd3, SB out: 8000002d, In A: c2340000, In B: fd719794
# UVM_INFO ../tb/scoreboard.sv(99) @ 3450: uvm_test_top.alu_env_h.alu_scoreboard_h [ERROR MSG-9] OUT is wrong!!! DUT out: 0000002d, SB out: 8000002d, In A: c2340000, In B: f901813c
# UVM_INFO ../tb/scoreboard.sv(99) @ 3550: uvm_test_top.alu_env_h.alu_scoreboard_h [ERROR MSG-9] OUT is wrong!!! DUT out: 0000002d, SB out: 8000002d, In A: c2340000, In B: 75841b18
# UVM_INFO ../tb/scoreboard.sv(99) @ 3650: uvm_test_top.alu_env_h.alu_scoreboard_h [ERROR MSG-9] OUT is wrong!!! DUT out: 0000002d, SB out: 8000002d, In A: c2340000, In B: 4f021dcd
# UVM_INFO ../tb/scoreboard.sv(99) @ 3750: uvm_test_top.alu_env_h.alu_scoreboard_h [ERROR MSG-9] OUT is wrong!!! DUT out: 0000002d, SB out: 8000002d, In A: c2340000, In B: 40d6ea4b
# UVM_INFO ../tb/scoreboard.sv(99) @ 3850: uvm_test_top.alu_env_h.alu_scoreboard_h [ERROR MSG-9] OUT is wrong!!! DUT out: ffffffd3, SB out: 8000002d, In A: c2340000, In B: 9b6c984a
# UVM_INFO ../tb/scoreboard.sv(99) @ 3950: uvm_test_top.alu_env_h.alu_scoreboard_h [ERROR MSG-9] OUT is wrong!!! DUT out: ffffffd3, SB out: 8000002d, In A: c2340000, In B: 9be9ea06
# UVM_INFO ../tb/scoreboard.sv(99) @ 4050: uvm_test_top.alu_env_h.alu_scoreboard_h [ERROR MSG-9] OUT is wrong!!! DUT out: ffffffd3, SB out: 8000002d, In A: c2340000, In B: cab3a5d7
# UVM_INFO ../tb/scoreboard.sv(99) @ 4150: uvm_test_top.alu_env_h.alu_scoreboard_h [ERROR MSG-9] OUT is wrong!!! DUT out: ffffffd3, SB out: 8000002d, In A: c2340000, In B: 9f43d9e1
# UVM_INFO ../tb/scoreboard.sv(99) @ 4250: uvm_test_top.alu_env_h.alu_scoreboard_h [ERROR MSG-9] OUT is wrong!!! DUT out: ffffffd3, SB out: 8000002d, In A: c2340000, In B: b07c82bc
# UVM_INFO ../tb/scoreboard.sv(99) @ 4350: uvm_test_top.alu_env_h.alu_scoreboard_h [ERROR MSG-9] OUT is wrong!!! DUT out: 0000002d, SB out: 8000002d, In A: c2340000, In B: a273d6e4
# UVM_INFO ../tb/scoreboard.sv(99) @ 4450: uvm_test_top.alu_env_h.alu_scoreboard_h [ERROR MSG-9] OUT is wrong!!! DUT out: ffffffd3, SB out: 8000002d, In A: c2340000, In B: 74909df4
# UVM_INFO ../tb/scoreboard.sv(99) @ 4550: uvm_test_top.alu_env_h.alu_scoreboard_h [ERROR MSG-9] OUT is wrong!!! DUT out: ffffffd3, SB out: 8000002d, In A: c2340000, In B: 9ba03590
# UVM_INFO ../tb/scoreboard.sv(99) @ 4650: uvm_test_top.alu_env_h.alu_scoreboard_h [ERROR MSG-9] OUT is wrong!!! DUT out: ffffffd3, SB out: 8000002d, In A: c2340000, In B: 0d37d58f
# UVM_INFO ../tb/scoreboard.sv(99) @ 4750: uvm_test_top.alu_env_h.alu_scoreboard_h [ERROR MSG-9] OUT is wrong!!! DUT out: ffffffd3, SB out: 8000002d, In A: c2340000, In B: c554ad99
# UVM_INFO ../tb/scoreboard.sv(99) @ 4850: uvm_test_top.alu_env_h.alu_scoreboard_h [ERROR MSG-9] OUT is wrong!!! DUT out: ffffffd3, SB out: 8000002d, In A: c2340000, In B: cc498f89
# UVM_INFO ../tb/scoreboard.sv(99) @ 4950: uvm_test_top.alu_env_h.alu_scoreboard_h [ERROR MSG-9] OUT is wrong!!! DUT out: ffffffd3, SB out: 8000002d, In A: c2340000, In B: 16d408b2
# UVM_INFO ../tb/scoreboard.sv(99) @ 5050: uvm_test_top.alu_env_h.alu_scoreboard_h [ERROR MSG-9] OUT is wrong!!! DUT out: 0000002d, SB out: 8000002d, In A: c2340000, In B: 0bb9f8aa
# UVM_INFO ../tb/scoreboard.sv(99) @ 5150: uvm_test_top.alu_env_h.alu_scoreboard_h [ERROR MSG-9] OUT is wrong!!! DUT out: 0000002d, SB out: 8000002d, In A: c2340000, In B: 537e36d7
# UVM_INFO ../tb/scoreboard.sv(99) @ 5250: uvm_test_top.alu_env_h.alu_scoreboard_h [ERROR MSG-9] OUT is wrong!!! DUT out: ffffffd3, SB out: 8000002d, In A: c2340000, In B: a88a7e18
# UVM_INFO ../tb/scoreboard.sv(99) @ 5350: uvm_test_top.alu_env_h.alu_scoreboard_h [ERROR MSG-9] OUT is wrong!!! DUT out: ffffffd3, SB out: 8000002d, In A: c2340000, In B: 98bfc2ac
# UVM_INFO ../tb/scoreboard.sv(99) @ 5450: uvm_test_top.alu_env_h.alu_scoreboard_h [ERROR MSG-9] OUT is wrong!!! DUT out: ffffffd3, SB out: 8000002d, In A: c2340000, In B: f5b63136
# UVM_INFO ../tb/scoreboard.sv(99) @ 5550: uvm_test_top.alu_env_h.alu_scoreboard_h [ERROR MSG-9] OUT is wrong!!! DUT out: ffffffd3, SB out: 8000002d, In A: c2340000, In B: 4911b5fe
# UVM_INFO ../tb/scoreboard.sv(99) @ 5650: uvm_test_top.alu_env_h.alu_scoreboard_h [ERROR MSG-9] OUT is wrong!!! DUT out: ffffffd3, SB out: 8000002d, In A: c2340000, In B: 3754e928
# UVM_INFO ../tb/scoreboard.sv(99) @ 5750: uvm_test_top.alu_env_h.alu_scoreboard_h [ERROR MSG-9] OUT is wrong!!! DUT out: 0000002d, SB out: 8000002d, In A: c2340000, In B: d1d4ecc4
# UVM_INFO ../tb/scoreboard.sv(99) @ 5850: uvm_test_top.alu_env_h.alu_scoreboard_h [ERROR MSG-9] OUT is wrong!!! DUT out: ffffffd3, SB out: 8000002d, In A: c2340000, In B: 8bb35f00
# UVM_INFO ../tb/scoreboard.sv(99) @ 5950: uvm_test_top.alu_env_h.alu_scoreboard_h [ERROR MSG-9] OUT is wrong!!! DUT out: ffffffd3, SB out: 8000002d, In A: c2340000, In B: ae6208e1
# UVM_INFO ../tb/scoreboard.sv(99) @ 6050: uvm_test_top.alu_env_h.alu_scoreboard_h [ERROR MSG-9] OUT is wrong!!! DUT out: 0000002d, SB out: 8000002d, In A: c2340000, In B: a05ff3c0
# UVM_INFO ../tb/scoreboard.sv(99) @ 6150: uvm_test_top.alu_env_h.alu_scoreboard_h [ERROR MSG-9] OUT is wrong!!! DUT out: ffffffd3, SB out: 8000002d, In A: c2340000, In B: 9bd5ac88
# UVM_INFO ../tb/scoreboard.sv(99) @ 6250: uvm_test_top.alu_env_h.alu_scoreboard_h [ERROR MSG-9] OUT is wrong!!! DUT out: ffffffd3, SB out: 8000002d, In A: c2340000, In B: c0cceb3b
# UVM_INFO ../tb/scoreboard.sv(99) @ 6350: uvm_test_top.alu_env_h.alu_scoreboard_h [ERROR MSG-9] OUT is wrong!!! DUT out: ffffffd3, SB out: 8000002d, In A: c2340000, In B: 00da9c62
# UVM_INFO ../tb/scoreboard.sv(99) @ 6450: uvm_test_top.alu_env_h.alu_scoreboard_h [ERROR MSG-9] OUT is wrong!!! DUT out: ffffffd3, SB out: 8000002d, In A: c2340000, In B: aa6c2c2f
# UVM_INFO ../tb/scoreboard.sv(99) @ 6550: uvm_test_top.alu_env_h.alu_scoreboard_h [ERROR MSG-9] OUT is wrong!!! DUT out: ffffffd3, SB out: 8000002d, In A: c2340000, In B: 1c21772a
# UVM_INFO ../tb/scoreboard.sv(99) @ 6650: uvm_test_top.alu_env_h.alu_scoreboard_h [ERROR MSG-9] OUT is wrong!!! DUT out: ffffffd3, SB out: 8000002d, In A: c2340000, In B: a76d301b
# UVM_INFO ../tb/scoreboard.sv(99) @ 6750: uvm_test_top.alu_env_h.alu_scoreboard_h [ERROR MSG-9] OUT is wrong!!! DUT out: ffffffd3, SB out: 8000002d, In A: c2340000, In B: 27c9a658
# UVM_INFO ../tb/scoreboard.sv(99) @ 6850: uvm_test_top.alu_env_h.alu_scoreboard_h [ERROR MSG-9] OUT is wrong!!! DUT out: ffffffd3, SB out: 8000002d, In A: c2340000, In B: 1412ba0c
# UVM_INFO ../tb/scoreboard.sv(99) @ 6950: uvm_test_top.alu_env_h.alu_scoreboard_h [ERROR MSG-9] OUT is wrong!!! DUT out: ffffffd3, SB out: 8000002d, In A: c2340000, In B: 68acec72
# UVM_INFO ../tb/scoreboard.sv(99) @ 7050: uvm_test_top.alu_env_h.alu_scoreboard_h [ERROR MSG-9] OUT is wrong!!! DUT out: ffffffd3, SB out: 8000002d, In A: c2340000, In B: e0e73de7
# UVM_INFO ../tb/scoreboard.sv(99) @ 7150: uvm_test_top.alu_env_h.alu_scoreboard_h [ERROR MSG-9] OUT is wrong!!! DUT out: ffffffd3, SB out: 8000002d, In A: c2340000, In B: db6ce30f
# UVM_INFO ../tb/scoreboard.sv(99) @ 7250: uvm_test_top.alu_env_h.alu_scoreboard_h [ERROR MSG-9] OUT is wrong!!! DUT out: ffffffd3, SB out: 8000002d, In A: c2340000, In B: baeef2c2
# UVM_INFO ../tb/scoreboard.sv(99) @ 7350: uvm_test_top.alu_env_h.alu_scoreboard_h [ERROR MSG-9] OUT is wrong!!! DUT out: 0000002d, SB out: 8000002d, In A: c2340000, In B: da0e6ad9
# UVM_INFO ../tb/scoreboard.sv(99) @ 7450: uvm_test_top.alu_env_h.alu_scoreboard_h [ERROR MSG-9] OUT is wrong!!! DUT out: 0000002d, SB out: 8000002d, In A: c2340000, In B: 51ca6690
# UVM_INFO ../tb/scoreboard.sv(99) @ 7550: uvm_test_top.alu_env_h.alu_scoreboard_h [ERROR MSG-9] OUT is wrong!!! DUT out: ffffffd3, SB out: 8000002d, In A: c2340000, In B: ab821889
# UVM_INFO ../tb/scoreboard.sv(99) @ 7650: uvm_test_top.alu_env_h.alu_scoreboard_h [ERROR MSG-9] OUT is wrong!!! DUT out: 0000002d, SB out: 8000002d, In A: c2340000, In B: a1e65a1c
# UVM_INFO ../tb/scoreboard.sv(99) @ 7750: uvm_test_top.alu_env_h.alu_scoreboard_h [ERROR MSG-9] OUT is wrong!!! DUT out: ffffffd3, SB out: 8000002d, In A: c2340000, In B: 211f6d9c
# UVM_INFO ../tb/scoreboard.sv(99) @ 7850: uvm_test_top.alu_env_h.alu_scoreboard_h [ERROR MSG-9] OUT is wrong!!! DUT out: ffffffd3, SB out: 8000002d, In A: c2340000, In B: 3e15edb1
# UVM_INFO ../tb/scoreboard.sv(99) @ 7950: uvm_test_top.alu_env_h.alu_scoreboard_h [ERROR MSG-9] OUT is wrong!!! DUT out: ffffffd3, SB out: 8000002d, In A: c2340000, In B: c69f802e
# UVM_INFO ../tb/scoreboard.sv(99) @ 8050: uvm_test_top.alu_env_h.alu_scoreboard_h [ERROR MSG-9] OUT is wrong!!! DUT out: ffffffd3, SB out: 8000002d, In A: c2340000, In B: c04e7c55
# UVM_INFO ../tb/scoreboard.sv(99) @ 8150: uvm_test_top.alu_env_h.alu_scoreboard_h [ERROR MSG-9] OUT is wrong!!! DUT out: ffffffd3, SB out: 8000002d, In A: c2340000, In B: a65459a5
# UVM_INFO ../tb/scoreboard.sv(99) @ 8250: uvm_test_top.alu_env_h.alu_scoreboard_h [ERROR MSG-9] OUT is wrong!!! DUT out: 0000002d, SB out: 8000002d, In A: c2340000, In B: ade52508
# UVM_INFO ../tb/scoreboard.sv(99) @ 8350: uvm_test_top.alu_env_h.alu_scoreboard_h [ERROR MSG-9] OUT is wrong!!! DUT out: ffffffd3, SB out: 8000002d, In A: c2340000, In B: dcd780fc
# UVM_INFO ../tb/scoreboard.sv(99) @ 8450: uvm_test_top.alu_env_h.alu_scoreboard_h [ERROR MSG-9] OUT is wrong!!! DUT out: ffffffd3, SB out: 8000002d, In A: c2340000, In B: 4af3e5f6
# UVM_INFO ../tb/scoreboard.sv(99) @ 8550: uvm_test_top.alu_env_h.alu_scoreboard_h [ERROR MSG-9] OUT is wrong!!! DUT out: ffffffd3, SB out: 8000002d, In A: c2340000, In B: cf21dc7a
# UVM_INFO ../tb/scoreboard.sv(99) @ 8650: uvm_test_top.alu_env_h.alu_scoreboard_h [ERROR MSG-9] OUT is wrong!!! DUT out: 0000002d, SB out: 8000002d, In A: c2340000, In B: 1d37ceda
# UVM_INFO ../tb/scoreboard.sv(99) @ 8750: uvm_test_top.alu_env_h.alu_scoreboard_h [ERROR MSG-9] OUT is wrong!!! DUT out: ffffffd3, SB out: 8000002d, In A: c2340000, In B: cd5fb4c0
# UVM_INFO ../tb/scoreboard.sv(99) @ 8850: uvm_test_top.alu_env_h.alu_scoreboard_h [ERROR MSG-9] OUT is wrong!!! DUT out: 0000002d, SB out: 8000002d, In A: c2340000, In B: cb646347
# UVM_INFO ../tb/scoreboard.sv(99) @ 8950: uvm_test_top.alu_env_h.alu_scoreboard_h [ERROR MSG-9] OUT is wrong!!! DUT out: ffffffd3, SB out: 8000002d, In A: c2340000, In B: 808e00aa
# UVM_INFO ../tb/scoreboard.sv(99) @ 9050: uvm_test_top.alu_env_h.alu_scoreboard_h [ERROR MSG-9] OUT is wrong!!! DUT out: 0000002d, SB out: 8000002d, In A: c2340000, In B: 1ba9ccb9
# UVM_INFO ../tb/scoreboard.sv(99) @ 9150: uvm_test_top.alu_env_h.alu_scoreboard_h [ERROR MSG-9] OUT is wrong!!! DUT out: 0000002d, SB out: 8000002d, In A: c2340000, In B: b234a846
# UVM_INFO ../tb/scoreboard.sv(99) @ 9250: uvm_test_top.alu_env_h.alu_scoreboard_h [ERROR MSG-9] OUT is wrong!!! DUT out: ffffffd3, SB out: 8000002d, In A: c2340000, In B: 3cb61e15
# UVM_INFO ../tb/scoreboard.sv(99) @ 9350: uvm_test_top.alu_env_h.alu_scoreboard_h [ERROR MSG-9] OUT is wrong!!! DUT out: ffffffd3, SB out: 8000002d, In A: c2340000, In B: d0d4b5dc
# UVM_INFO ../tb/scoreboard.sv(99) @ 9450: uvm_test_top.alu_env_h.alu_scoreboard_h [ERROR MSG-9] OUT is wrong!!! DUT out: ffffffd3, SB out: 8000002d, In A: c2340000, In B: 3ea9db9a
# UVM_INFO ../tb/scoreboard.sv(99) @ 9550: uvm_test_top.alu_env_h.alu_scoreboard_h [ERROR MSG-9] OUT is wrong!!! DUT out: ffffffd3, SB out: 8000002d, In A: c2340000, In B: b3fb668e
# UVM_INFO ../tb/scoreboard.sv(99) @ 9650: uvm_test_top.alu_env_h.alu_scoreboard_h [ERROR MSG-9] OUT is wrong!!! DUT out: 0000002d, SB out: 8000002d, In A: c2340000, In B: 54e809a7
# UVM_INFO ../tb/scoreboard.sv(99) @ 9750: uvm_test_top.alu_env_h.alu_scoreboard_h [ERROR MSG-9] OUT is wrong!!! DUT out: ffffffd3, SB out: 8000002d, In A: c2340000, In B: ca2a60f6
# UVM_INFO ../tb/scoreboard.sv(99) @ 9850: uvm_test_top.alu_env_h.alu_scoreboard_h [ERROR MSG-9] OUT is wrong!!! DUT out: ffffffd3, SB out: 8000002d, In A: c2340000, In B: 2aec55cf
# UVM_INFO ../tb/scoreboard.sv(99) @ 9950: uvm_test_top.alu_env_h.alu_scoreboard_h [ERROR MSG-9] OUT is wrong!!! DUT out: ffffffd3, SB out: 8000002d, In A: c2340000, In B: d7440cda
# UVM_INFO verilog_src/uvm-1.1d/src/base/uvm_objection.svh(1268) @ 9950: reporter [TEST_DONE] 'run' phase is ready to proceed to the 'extract' phase
# 
# --- UVM Report Summary ---
# 
# ** Report counts by severity
# UVM_INFO :   99
# UVM_WARNING :    0
# UVM_ERROR :    0
# UVM_FATAL :    0
# ** Report counts by id
# [ERROR MSG-9]    95
# [Questa UVM]     2
# [RNTST]     1
# [TEST_DONE]     1
# ** Note: $finish    : /misc/linuxws/packages/mentor_2015/modelsim/modeltech/linux_x86_64/../verilog_src/uvm-1.1d/src/base/uvm_root.svh(430)
#    Time: 995 ns  Iteration: 70  Instance: /top
# End time: 03:53:36 on Apr 18,2017, Elapsed time: 0:00:10
# Errors: 0, Warnings: 0
